[
 {
  "kind": "projecthosting#issueComment",
  "canDelete": true,
  "author": {
   "kind": "projecthosting#issuePerson",
   "name": "Vivien_Mal...@Yah..."
  },
  "content": "Hello,\r\n\r\nWhen you are in desktop 2, tint2 shows for desktop 1 all the windows that are in desktop 1... except the sticky windows! This is inconsistent because the sticky windows *are* in desktop 1, just like the other windows in this desktop.\r\n\r\nIn addition, because of that, there is no way to know whether a window is sticky or not. I do not know why tint2 is hiding this information, but this is not convenient.\r\n\r\nAlso, when you switch to another desktop, the sticky windows suddenly appear among the other icons/texts, which makes the position of the other icons/texts unpredictable after the switch. This is a bit annoying, and for sure inefficient because your mouse may not be anymore above the right application, etc.\r\n\r\nWould it be possible to show the sticky windows, to be consistent with the other windows, and to have a more steady experience with tint2?\r\n\r\nBesides this strange behavior, tint2 is an excellent panel.\r\nThank you for your work.",
  "updates": {
   "kind": "projecthosting#issueCommentUpdate"
  },
  "published": "2010-07-31T10:29:11.000Z",
  "id": 0
 },
 {
  "kind": "projecthosting#issueComment",
  "canDelete": true,
  "author": {
   "kind": "projecthosting#issuePerson",
   "name": "thilo..."
  },
  "content": "see http://code.google.com/p/tint2/issues/detail?id=186\r\n\r\nat beginning, tint2 show stiky window on all desktop.\r\nbut some users complain about it.\r\n\r\nI'm not sure if an option is needed for those windows ??\r\n\r\n",
  "updates": {
   "kind": "projecthosting#issueCommentUpdate"
  },
  "published": "2010-07-31T11:45:42.000Z",
  "id": 1
 },
 {
  "kind": "projecthosting#issueComment",
  "canDelete": true,
  "author": {
   "kind": "projecthosting#issuePerson",
   "name": "Vivien_Mal...@Yah..."
  },
  "content": "The first guess is often the best! The original implementation made more sense; it chose the natural option. I understand that a few users may want another behavior. Maybe they have a lot of sticky windows and they do not want \"noise\" in the taskbar. But see my experience-oriented comments: the logical and steady behavior is to show the windows...\r\n\r\nI have nothing against an option which would settle the issue. If people have opinions on the specific behavior of the sticky windows, it means this is not an entirely minor issue. Hence an option makes sense!\r\n\r\nThanks.",
  "updates": {
   "kind": "projecthosting#issueCommentUpdate"
  },
  "published": "2010-07-31T12:10:07.000Z",
  "id": 2
 },
 {
  "kind": "projecthosting#issueComment",
  "canDelete": true,
  "author": {
   "kind": "projecthosting#issuePerson",
   "name": "thilo..."
  },
  "content": "",
  "updates": {
   "kind": "projecthosting#issueCommentUpdate",
   "labels": [
    "-Type-Defect",
    "Type-Enhancement"
   ]
  },
  "published": "2011-01-06T23:36:24.000Z",
  "id": 3
 },
 {
  "kind": "projecthosting#issueComment",
  "canDelete": true,
  "author": {
   "kind": "projecthosting#issuePerson",
   "name": "mrovi9..."
  },
  "content": "",
  "updates": {
   "status": "Wishlist",
   "kind": "projecthosting#issueCommentUpdate",
   "labels": [
    "-Priority-Medium",
    "Priority-Low"
   ]
  },
  "published": "2015-02-01T22:45:23.000Z",
  "id": 4
 },
 {
  "kind": "projecthosting#issueComment",
  "canDelete": true,
  "author": {
   "kind": "projecthosting#issuePerson",
   "name": "mrovi9..."
  },
  "content": "",
  "updates": {
   "kind": "projecthosting#issueCommentUpdate",
   "labels": [
    "Component-Taskbar"
   ]
  },
  "published": "2015-02-02T00:07:07.000Z",
  "id": 5
 }
]