[
 {
  "kind": "projecthosting#issueComment",
  "canDelete": true,
  "author": {
   "kind": "projecthosting#issuePerson",
   "name": "jose1..."
  },
  "content": "tint2 completely ignores gkrellm's option to hide it from a taskbar. gkrellm \r\nis therefore always listed. tested with openbox 3.4.7, tint2 0.7.1, gkrellm \r\n2.3.2.",
  "updates": {
   "kind": "projecthosting#issueCommentUpdate"
  },
  "published": "2009-09-07T21:39:38.000Z",
  "id": 0
 },
 {
  "kind": "projecthosting#issueComment",
  "canDelete": true,
  "author": {
   "kind": "projecthosting#issuePerson",
   "name": "thilo..."
  },
  "content": "just added a patch for issue 117.\r\nIf you can check SVN, I think this one is solved.\r\n",
  "updates": {
   "status": "Accepted",
   "kind": "projecthosting#issueCommentUpdate"
  },
  "published": "2009-09-07T21:45:57.000Z",
  "id": 1
 },
 {
  "kind": "projecthosting#issueComment",
  "canDelete": true,
  "author": {
   "kind": "projecthosting#issuePerson",
   "name": "thilo..."
  },
  "content": "tested. it's ok in SVN r170.",
  "updates": {
   "status": "Fixed",
   "kind": "projecthosting#issueCommentUpdate"
  },
  "published": "2009-09-08T18:59:17.000Z",
  "id": 2
 }
]