[
 {
  "kind": "projecthosting#issueComment",
  "canDelete": true,
  "author": {
   "kind": "projecthosting#issuePerson",
   "name": "m.bn..."
  },
  "content": "<b>What is the expected output? What do you see instead?</b>\nttm allowed borders to be set just at the bottom, for example.\r\n\r\n<b>What version of the product are you using? On what operating system?</b>\n0.6, openbox 3.4.6.1, fedora 8\r\n\r\n<b>Please provide any additional information below.</b>\nInvalid option: &quot;panel_tasks_centered&quot;, correct your config file\r\nInvalid option: &quot;task_background_as_border&quot;, correct your config file\r\ntint warning : convert user's config file\r\n\r\nOld ttm file:\r\n#---------------------------------------------\r\n# TTM CONFIG FILE\r\n#\r\n# colors: hex format\r\n# booleans: 0 or 1 \r\n# alpha: 0 to 100 percent\r\n# font: [FAMILY-LIST] [STYLE-OPTIONS] [SIZE]\r\n# panel_width: 0 == use full width\r\n#---------------------------------------------\r\n\r\n#---------------------------------------------\r\n# FONT\r\n#---------------------------------------------\r\nfont = nu\r\n##font = Frucade Medium, 6\r\nfont_color = #222222\r\nfont_alpha = 35\r\nfont_active_color = #000000\r\nfont_active_alpha = 60\r\nfont_shadow = 0\r\n\r\n#---------------------------------------------\r\n# TASKS\r\n#---------------------------------------------\r\ntask_text_centered = 1\r\ntask_width = 150\r\ntask_margin = 3\r\ntask_padding = 5\r\n\r\n#---------------------------------------------\r\n# PANEL\r\n#---------------------------------------------\r\npanel_width = 0\r\npanel_height = 30\r\npanel_tasks_centered = 0\r\n\r\n#---------------------------------------------\r\n# PANEL BACKGROUND\r\n#---------------------------------------------\r\npanel_background = 0\r\npanel_background_color = #000000\r\npanel_background_alpha = 25\r\n\r\n#---------------------------------------------\r\n# TASK BACKGROUND\r\n#---------------------------------------------\r\ntask_background = 1\r\ntask_background_color = #222222\r\ntask_background_alpha = 25\r\ntask_active_background_color = #000000\r\ntask_active_background_alpha = 50\r\ntask_background_as_border = 1\r\n\r\n ",
  "updates": {
   "kind": "projecthosting#issueCommentUpdate"
  },
  "published": "2008-08-07T18:36:02.000Z",
  "id": 0
 },
 {
  "kind": "projecthosting#issueComment",
  "canDelete": true,
  "author": {
   "kind": "projecthosting#issuePerson",
   "name": "thilo..."
  },
  "content": "not sure I can support this bug report.\r\nbecause ttm doesn't define border at bottom in config file.\r\n\r\nit's more like a bug in ttm ???\r\n",
  "updates": {
   "kind": "projecthosting#issueCommentUpdate"
  },
  "published": "2008-08-07T20:15:04.000Z",
  "id": 1
 },
 {
  "kind": "projecthosting#issueComment",
  "canDelete": true,
  "author": {
   "kind": "projecthosting#issuePerson",
   "name": "m.bn..."
  },
  "content": "As far as I know, you can no longer do something like this:\r\nhttp://fc02.deviantart.com/fs19/f/2007/273/5/4/54d02bd0934b27cc.png\r\n\r\ncan you? I was going to look into this this weekend, and if I figure out what is\r\ndifferent, I'll give you a patch.",
  "updates": {
   "kind": "projecthosting#issueCommentUpdate"
  },
  "published": "2008-08-07T21:39:29.000Z",
  "id": 2
 },
 {
  "kind": "projecthosting#issueComment",
  "attachments": [
   {
    "mimetype": "text/x-patch",
    "attachmentId": "-6102789681274188687",
    "fileSize": 602,
    "fileName": "tint_border_as_background.patch"
   }
  ],
  "canDelete": true,
  "author": {
   "kind": "projecthosting#issuePerson",
   "name": "m.bn..."
  },
  "content": "Here is the fix to bring the functionality back from ttm. I tried to follow your\r\ncoding conventions and its a really simple patch.",
  "updates": {
   "kind": "projecthosting#issueCommentUpdate"
  },
  "published": "2008-08-09T01:19:53.000Z",
  "id": 3
 },
 {
  "kind": "projecthosting#issueComment",
  "canDelete": true,
  "author": {
   "kind": "projecthosting#issuePerson",
   "name": "thilo..."
  },
  "content": "I have not found this option interesting :)\r\n\r\nbut it's already here in ttm, so will applied your patch in next release\r\n\r\nthanks.\r\n",
  "updates": {
   "status": "Accepted",
   "kind": "projecthosting#issueCommentUpdate"
  },
  "published": "2008-08-09T08:56:09.000Z",
  "id": 4
 },
 {
  "kind": "projecthosting#issueComment",
  "canDelete": true,
  "author": {
   "kind": "projecthosting#issuePerson",
   "name": "m.bn..."
  },
  "content": "It would be nicer if it was more like CSS \r\n\r\nborder-left: ...\r\nborder-right: ...\r\n...\r\n\r\nbut this is a simple solution that lets people have only bottom borders.",
  "updates": {
   "kind": "projecthosting#issueCommentUpdate"
  },
  "published": "2008-08-09T14:30:54.000Z",
  "id": 5
 },
 {
  "kind": "projecthosting#issueComment",
  "canDelete": true,
  "author": {
   "kind": "projecthosting#issuePerson",
   "name": "m.bn..."
  },
  "content": "It would be nicer if it was more like CSS \r\n\r\nborder-left: ...\r\nborder-right: ...\r\n...\r\n\r\nbut this is a simple solution that lets people have only bottom borders.\r\n\r\nIt seems that your Google SVN repository is empty.",
  "updates": {
   "kind": "projecthosting#issueCommentUpdate"
  },
  "published": "2008-08-09T14:31:30.000Z",
  "id": 6
 },
 {
  "kind": "projecthosting#issueComment",
  "canDelete": true,
  "author": {
   "kind": "projecthosting#issuePerson",
   "name": "thilo..."
  },
  "content": "yes, svn is empty.\r\nbecause have not enought time to keep code stable between release.\r\n\r\n> It would be nicer if it was more like CSS \r\n> border-left: ...\r\n> border-right: ...\r\nno, i want tintrc to be easy to configure and lightweight.\r\n\r\n\r\n",
  "updates": {
   "kind": "projecthosting#issueCommentUpdate"
  },
  "published": "2008-08-09T17:38:06.000Z",
  "id": 7
 },
 {
  "kind": "projecthosting#issueComment",
  "canDelete": true,
  "author": {
   "kind": "projecthosting#issuePerson",
   "name": "thilo..."
  },
  "content": "ok,\r\n\r\nafter some thought, i need to remove the parameter task_background_as_border.\r\nit's not the right way to do it. and I don't want to add uneeded parameters.\r\n\r\nI'll leave the bug open until a better solution come.\r\n",
  "updates": {
   "kind": "projecthosting#issueCommentUpdate",
   "labels": [
    "-Priority-Medium",
    "Priority-Low"
   ]
  },
  "published": "2008-08-12T07:49:24.000Z",
  "id": 8
 },
 {
  "kind": "projecthosting#issueComment",
  "canDelete": true,
  "author": {
   "kind": "projecthosting#issuePerson",
   "name": "m.bn..."
  },
  "content": "That is why I mentioned CSS as an alternative.\r\n\r\nAnother more lightweight solution would be to do something like:\r\n\r\n\"border_location = LeftTop\"   (where Top, Right, Left, Bottom are searched for in the\r\nvalue)",
  "updates": {
   "kind": "projecthosting#issueCommentUpdate"
  },
  "published": "2008-08-12T13:16:45.000Z",
  "id": 9
 },
 {
  "kind": "projecthosting#issueComment",
  "canDelete": true,
  "author": {
   "kind": "projecthosting#issuePerson",
   "name": "thilo..."
  },
  "content": "this parameter is not that much important.\r\nso i'll prefer a solution witch doesn't add another parameters in config file...",
  "updates": {
   "kind": "projecthosting#issueCommentUpdate"
  },
  "published": "2008-08-12T16:09:21.000Z",
  "id": 10
 },
 {
  "kind": "projecthosting#issueComment",
  "canDelete": true,
  "author": {
   "kind": "projecthosting#issuePerson",
   "name": "m.bn..."
  },
  "content": "It doesn't hurt the user to have an extra option as long as they're meaning and this\r\nwas even in ttm/tint1. I think having a border around the items is awful looking but\r\nthe border at the bottom looks more elegant.",
  "updates": {
   "kind": "projecthosting#issueCommentUpdate"
  },
  "published": "2008-08-12T16:12:06.000Z",
  "id": 11
 },
 {
  "kind": "projecthosting#issueComment",
  "canDelete": true,
  "author": {
   "kind": "projecthosting#issuePerson",
   "name": "matsusuked..."
  },
  "content": "How about changing the panel_border_width and panel_border_color parameters? If \r\nthere is only one value specified, this value gets applied as it used to. If four \r\nvalues are specified, they get applied to the corresponding border. The way the four \r\n(or less) values are applied could be inspired by CSS:\r\n\r\n> If there is only one value, it applies to all sides. If there are two values,\r\n> the top and bottom borders are set to the first value and the right and left are\r\n> set to the second. If there are three values, the top is set to the first value,\r\n> the left and right are set to the second, and the bottom is set to the third. If\r\n> there are four values, they apply to the top, right, bottom, and left,\r\n> respectively.\r\n[http://www.w3.org/TR/CSS21/box.html#propdef-border-width]\r\n\r\nNo additional parameter needed here IMHO.",
  "updates": {
   "kind": "projecthosting#issueCommentUpdate"
  },
  "published": "2008-08-17T10:38:59.000Z",
  "id": 12
 },
 {
  "kind": "projecthosting#issueComment",
  "canDelete": true,
  "author": {
   "kind": "projecthosting#issuePerson",
   "name": "matsusuked..."
  },
  "id": 13,
  "content": "There actually is since I forgot about the opacity value. Seems like 8 new \r\nparameters are needed to not break existing configurations: panel_border_*_width and \r\npanel_border_*_color. (* representing top, right, bottom and left).",
  "updates": {
   "kind": "projecthosting#issueCommentUpdate"
  },
  "published": "2008-08-17T10:49:35.000Z",
  "deletedBy": {
   "kind": "projecthosting#issuePerson",
   "name": "matsusuked..."
  }
 },
 {
  "kind": "projecthosting#issueComment",
  "canDelete": true,
  "author": {
   "kind": "projecthosting#issuePerson",
   "name": "matsusuked..."
  },
  "content": "There actually is since I forgot about the opacity value. Seems like 8 new \r\nparameters are needed to not break existing configurations: task_border_*_width and \r\ntask_border_*_color. (* representing top, right, bottom and left). Maybe \r\ntask_active_*_border_color is also needed\u2026",
  "updates": {
   "kind": "projecthosting#issueCommentUpdate"
  },
  "published": "2008-08-17T10:54:09.000Z",
  "id": 14
 },
 {
  "kind": "projecthosting#issueComment",
  "canDelete": true,
  "author": {
   "kind": "projecthosting#issuePerson",
   "name": "thilo..."
  },
  "content": "Hi i...@noctus.net,\r\n\r\nyes, this is the first idea.\r\n1 color/opacity applied to all borders, 4 color/opacity allows to disable each border\r\n(with opacity == 0).\r\nanother problem is rounded corner.\r\n\r\nit's not bad.\r\nbut is it's good enought ?? not sure...\r\n\r\nanother solution is to use gradient on border's color. \r\nthis will offert better capability, and better look.\r\nQuestion : how to disable borders with gradiant parameters ??\r\n\r\nthanks for the feedback\r\n",
  "updates": {
   "kind": "projecthosting#issueCommentUpdate"
  },
  "published": "2008-08-17T13:48:30.000Z",
  "id": 15
 },
 {
  "kind": "projecthosting#issueComment",
  "canDelete": true,
  "author": {
   "kind": "projecthosting#issuePerson",
   "name": "thilo..."
  },
  "content": "will try gradient later ...",
  "updates": {
   "kind": "projecthosting#issueCommentUpdate",
   "labels": [
    "-Type-Defect",
    "Type-Enhancement"
   ]
  },
  "published": "2009-01-18T16:55:55.000Z",
  "id": 16
 },
 {
  "kind": "projecthosting#issueComment",
  "canDelete": true,
  "author": {
   "kind": "projecthosting#issuePerson",
   "name": "lor..."
  },
  "content": "no news on this feature, i guess...",
  "updates": {
   "kind": "projecthosting#issueCommentUpdate"
  },
  "published": "2012-05-04T16:08:05.000Z",
  "id": 17
 },
 {
  "kind": "projecthosting#issueComment",
  "canDelete": true,
  "author": {
   "kind": "projecthosting#issuePerson",
   "name": "hybris..."
  },
  "id": 18,
  "content": "So this useful feature was removed to make tint2 \"easier to configure\"? Absurd. Please explain how taking away options makes tint2 easier to configure. The only reason I can think of is that it would stop newbs getting confused with too many options; but that could easily be solved by making the samplerc and wiki only include the basics. Then you could have a more advanced guide that includes all the extra options for tweakers. \r\n\r\nAnd removing this feature probably barely saves any memory. ",
  "updates": {
   "kind": "projecthosting#issueCommentUpdate"
  },
  "published": "2013-01-17T02:36:44.000Z",
  "deletedBy": {
   "kind": "projecthosting#issuePerson",
   "name": "hybris..."
  }
 },
 {
  "kind": "projecthosting#issueComment",
  "canDelete": true,
  "author": {
   "kind": "projecthosting#issuePerson",
   "name": "hybris..."
  },
  "content": "I would use tint2 but for the fact that this feature was removed. I like to have black borders in my theme, but now I can't make the task borders overlap with the panel borders, so it looks ugly.",
  "updates": {
   "kind": "projecthosting#issueCommentUpdate"
  },
  "published": "2013-01-17T02:39:28.000Z",
  "id": 19
 },
 {
  "kind": "projecthosting#issueComment",
  "canDelete": true,
  "author": {
   "kind": "projecthosting#issuePerson",
   "name": "goo...@cra..."
  },
  "content": "",
  "updates": {
   "status": "Wishlist",
   "kind": "projecthosting#issueCommentUpdate"
  },
  "published": "2015-02-01T02:53:48.000Z",
  "id": 20
 },
 {
  "kind": "projecthosting#issueComment",
  "canDelete": true,
  "author": {
   "kind": "projecthosting#issuePerson",
   "name": "mrovi9..."
  },
  "content": "",
  "updates": {
   "kind": "projecthosting#issueCommentUpdate",
   "labels": [
    "Component-Panel"
   ],
   "summary": "Borders on only one/some sides"
  },
  "published": "2015-02-02T00:20:09.000Z",
  "id": 21
 },
 {
  "kind": "projecthosting#issueComment",
  "canDelete": true,
  "author": {
   "kind": "projecthosting#issuePerson",
   "name": "mrovi9..."
  },
  "content": "",
  "updates": {
   "kind": "projecthosting#issueCommentUpdate",
   "labels": [
    "-Component-Panel"
   ]
  },
  "published": "2015-02-02T00:20:25.000Z",
  "id": 22
 }
]