[
 {
  "kind": "projecthosting#issueComment",
  "canDelete": true,
  "author": {
   "kind": "projecthosting#issuePerson",
   "name": "schwarzwal..."
  },
  "content": "I'd rather classify this as: nice-to-have-feature rather than a bug\r\n\r\nrecent tint2 from svn\r\nrecent e17 from svn\r\n\r\napplications can only be minimized by clicking on them in tint, they cannot \r\nbe brought back when clicking them again.",
  "updates": {
   "kind": "projecthosting#issueCommentUpdate"
  },
  "published": "2009-03-18T16:29:15.000Z",
  "id": 0
 },
 {
  "kind": "projecthosting#issueComment",
  "canDelete": true,
  "author": {
   "kind": "projecthosting#issuePerson",
   "name": "thilo..."
  },
  "content": "",
  "updates": {
   "status": "Accepted",
   "kind": "projecthosting#issueCommentUpdate"
  },
  "published": "2009-03-18T17:28:52.000Z",
  "id": 1
 },
 {
  "kind": "projecthosting#issueComment",
  "canDelete": true,
  "author": {
   "kind": "projecthosting#issuePerson",
   "name": "thilo..."
  },
  "content": "switch this report to 'enhancement'",
  "updates": {
   "kind": "projecthosting#issueCommentUpdate",
   "labels": [
    "-Type-Defect",
    "Type-Enhancement"
   ]
  },
  "published": "2009-04-18T20:29:18.000Z",
  "id": 2
 },
 {
  "kind": "projecthosting#issueComment",
  "canDelete": true,
  "author": {
   "kind": "projecthosting#issuePerson",
   "name": "davidm..."
  },
  "content": "Hello, I'm doing a Linux distribution based on Ubuntu and e17, I got the transparency\r\nof tint2 but I can not manage to achieve is to maximize the windows. Please help I\r\ncan do?",
  "updates": {
   "kind": "projecthosting#issueCommentUpdate"
  },
  "published": "2010-06-03T16:47:09.000Z",
  "id": 3
 },
 {
  "kind": "projecthosting#issueComment",
  "canDelete": true,
  "author": {
   "kind": "projecthosting#issuePerson",
   "name": "thilo..."
  },
  "content": "when you said \"maximize\", do you mean \"brought back when clicking them again\" ?\r\n\r\nsome test you can do :\r\n- try the option\r\n  mouse_right = maximize_restore\r\n  and report if it's working\r\n- try the option\r\n  mouse_right = toggle_iconify\r\n  and report if it's working\r\n\r\ncan you test another panel (like lxpanel) and report if you have the same problem ?\r\n\r\ndo you know a distribution with e17, so I can test tint2 on it ?\r\n",
  "updates": {
   "kind": "projecthosting#issueCommentUpdate"
  },
  "published": "2010-06-03T20:00:54.000Z",
  "id": 4
 },
 {
  "kind": "projecthosting#issueComment",
  "canDelete": true,
  "author": {
   "kind": "projecthosting#issuePerson",
   "name": "davidm..."
  },
  "content": "Mostrar forma romanizada\r\nI mean that I click on the minimized window is not maximized and remains in the bar\r\nas usual.\r\n\r\nI've tried what you said but not working.\r\n\r\nThank you very much for answering",
  "updates": {
   "kind": "projecthosting#issueCommentUpdate"
  },
  "published": "2010-06-03T21:50:36.000Z",
  "id": 5
 },
 {
  "kind": "projecthosting#issueComment",
  "canDelete": true,
  "author": {
   "kind": "projecthosting#issuePerson",
   "name": "Andreas.Fin..."
  },
  "content": "see issue 198. This seems to be a problem with e17 not tint2. ",
  "updates": {
   "kind": "projecthosting#issueCommentUpdate"
  },
  "published": "2010-06-04T07:44:03.000Z",
  "id": 6
 },
 {
  "kind": "projecthosting#issueComment",
  "canDelete": true,
  "author": {
   "kind": "projecthosting#issuePerson",
   "name": "davidm..."
  },
  "content": "i installed lxpanel but no maximize, sorry for my english",
  "updates": {
   "kind": "projecthosting#issueCommentUpdate"
  },
  "published": "2010-06-04T15:42:33.000Z",
  "id": 7
 },
 {
  "kind": "projecthosting#issueComment",
  "canDelete": true,
  "author": {
   "kind": "projecthosting#issuePerson",
   "name": "thilo..."
  },
  "content": "tint2 and lxpanel works with most Window Manager,\r\nso the problem is located in e17.",
  "updates": {
   "kind": "projecthosting#issueCommentUpdate"
  },
  "published": "2010-06-04T16:54:51.000Z",
  "id": 8
 },
 {
  "kind": "projecthosting#issueComment",
  "canDelete": true,
  "author": {
   "kind": "projecthosting#issuePerson",
   "name": "thilo..."
  },
  "content": "",
  "updates": {
   "kind": "projecthosting#issueCommentUpdate",
   "labels": [
    "-Type-Enhancement",
    "Type-Other"
   ]
  },
  "published": "2010-06-04T16:55:29.000Z",
  "id": 9
 },
 {
  "kind": "projecthosting#issueComment",
  "attachments": [
   {
    "mimetype": "image/jpeg; charset=binary",
    "attachmentId": "580010000",
    "fileSize": 172616,
    "fileName": "tint2-bug.jpg"
   }
  ],
  "canDelete": true,
  "author": {
   "kind": "projecthosting#issuePerson",
   "name": "AJPK..."
  },
  "content": "I don't have the above mentioned problems with e17.  It works fine with the latest builds from the arch.  What I do have a problem with is tint2 not sticking to the edge properly (see attached screenshot).  Other than that this is the best taskmanager I've found to date.",
  "updates": {
   "kind": "projecthosting#issueCommentUpdate"
  },
  "published": "2012-07-13T12:02:49.000Z",
  "id": 10
 },
 {
  "kind": "projecthosting#issueComment",
  "canDelete": true,
  "author": {
   "kind": "projecthosting#issuePerson",
   "name": "mrovi9..."
  },
  "content": "Closing since this is an old report and seems to be related to the window manager in E17. If the problem still occurs, feel free to reopen.",
  "updates": {
   "status": "Invalid",
   "kind": "projecthosting#issueCommentUpdate"
  },
  "published": "2015-02-01T09:13:05.000Z",
  "id": 11
 }
]