[
 {
  "kind": "projecthosting#issueComment",
  "canDelete": true,
  "author": {
   "kind": "projecthosting#issuePerson",
   "name": "milesmel...@yah..."
  },
  "content": "I looked across multiple boards and this issue tracker and didn't find this anywhere...  Please consider this feature request:\r\n\r\ntint2 is ideal in each aspect, to me, except that it doesn't allow image backgrounds.\r\n\r\nI know that the use of solid colors with transparency is a powerful feature but the option of image backgrounds, such as transparent PNGs or pixmaps, would make tint2 vastly more powerful.\r\n\r\nAn example of syntax could be as following:\r\n\r\n------\r\n\r\n# ID 1 - Background\r\nrounded = 0\r\nborder_width = 0\r\n\r\nbackground_color = #000000 50\r\n# Background colors would generate behind the image, 0 to disable\r\n\r\nbackground_image = /home/user/.config/tint2/images/background.png\r\n# Finds the image, much like for finding launcher .desktop files\r\n# Disabled by default\r\n\r\nbackground_image_position = left top\r\n# Designates the image position\r\n# First is for the x-axis (left, center, right)\r\n# Second is for the y-axis (top, center, bottom)\r\n\r\nbackground_image_repeat = yes no\r\n# Options to repeat the image if necessary\r\n# First is for the x-axis (yes, no)\r\n# Second is for the y-axis (yes, no)\r\n\r\n------\r\n\r\nIf this has already been addressed I apologize but I couldn't find this issue anywhere. Thanks in advance.",
  "updates": {
   "kind": "projecthosting#issueCommentUpdate"
  },
  "published": "2012-02-12T23:53:59.000Z",
  "id": 0
 },
 {
  "kind": "projecthosting#issueComment",
  "attachments": [
   {
    "mimetype": "image/png; charset=binary",
    "attachmentId": "3930001000",
    "fileSize": 1109,
    "fileName": "9-cell-corner-layout.png"
   }
  ],
  "canDelete": true,
  "author": {
   "kind": "projecthosting#issuePerson",
   "name": "mrovi%interfete-web-club....@gte..."
  },
  "content": "I have a few comments about this. I agree that theming tint2 with background images would be a powerful feature, and there might be a lot of people who would use it.\r\n\r\nHowever it is a bit more complicated to configure than you think. You have to take into account rounded corners, and backgrounds that can vary in both width and height. The typical solution for this is to use a 9-cell rounded corners table layout, with 4 fixed corner images and 5 stretched/tiled images for edges and the center (see the attached image). Let's say that you generally stretch, and to optimize a bit you tile images that are 1-pixel wide - then you have 9 new config lines for each background, plus a flag to toggle between images and the current way of drawing. The configuration file is already quite complex to edit by hand (there are about 100 config options), so I don't think there is a chance this feature will be introduced before tint2 has a configuration GUI.",
  "updates": {
   "kind": "projecthosting#issueCommentUpdate"
  },
  "published": "2012-02-21T17:05:40.000Z",
  "id": 1
 },
 {
  "kind": "projecthosting#issueComment",
  "canDelete": true,
  "author": {
   "kind": "projecthosting#issuePerson",
   "name": "mrovi%interfete-web-club....@gte..."
  },
  "content": "",
  "updates": {
   "kind": "projecthosting#issueCommentUpdate",
   "labels": [
    "-Type-Defect",
    "Type-Enhancement"
   ]
  },
  "published": "2012-02-21T17:06:05.000Z",
  "id": 2
 },
 {
  "kind": "projecthosting#issueComment",
  "canDelete": true,
  "author": {
   "kind": "projecthosting#issuePerson",
   "name": "milesmel...@yah..."
  },
  "content": "Ah, I see. I thought the way the configuration it'd work would be just as simple as I explained; I was thinking I may have even been over-complicating it. I hope that this will be a future we can expect to see, even though probably not soon. Anyways, thanks for the information.",
  "updates": {
   "kind": "projecthosting#issueCommentUpdate"
  },
  "published": "2012-02-23T07:28:52.000Z",
  "id": 3
 },
 {
  "kind": "projecthosting#issueComment",
  "canDelete": true,
  "author": {
   "kind": "projecthosting#issuePerson",
   "name": "mrovi9..."
  },
  "content": "",
  "updates": {
   "status": "Wishlist",
   "kind": "projecthosting#issueCommentUpdate",
   "summary": "Image backgrounds"
  },
  "published": "2015-02-01T23:34:15.000Z",
  "id": 4
 },
 {
  "kind": "projecthosting#issueComment",
  "canDelete": true,
  "author": {
   "kind": "projecthosting#issuePerson",
   "name": "mrovi9..."
  },
  "content": "Related: issue 245.",
  "updates": {
   "kind": "projecthosting#issueCommentUpdate"
  },
  "published": "2015-02-02T00:08:20.000Z",
  "id": 5
 }
]