[
 {
  "kind": "projecthosting#issueComment",
  "canDelete": true,
  "author": {
   "kind": "projecthosting#issuePerson",
   "name": "fritho..."
  },
  "content": "1 - The clock panel is being rendered with the proper background, but there\r\nis no font showing.  Changing the clock format string does change the size\r\nof the clock panel, but it seems the font is being rendered to the same\r\ncolor and opacity as the background.\r\n2 - changing the clock font opacity results in some strange behavior in the\r\nactive/inactive tasks.  I can't correlate it exactly but different settings\r\nfrom 0-100 will result in either the active task background opacity\r\nbecoming the active font opacity, or the inactive task font opacity\r\nbecoming the inactive task background opacity.  Either I couldn't read what\r\nmy active task was (solid block of light) or I couldn't read what the other\r\ntasks were (sold blocks of dark)\r\n\r\nI'm using the latest checkout, on debian lenny amd64, with fluxbox.  I had\r\na checkout previously from June 2008, but it would segfault when I would\r\nview certain jpg files in Gqview :/",
  "updates": {
   "kind": "projecthosting#issueCommentUpdate"
  },
  "published": "2009-01-21T11:34:44.000Z",
  "id": 0
 },
 {
  "kind": "projecthosting#issueComment",
  "canDelete": true,
  "author": {
   "kind": "projecthosting#issuePerson",
   "name": "thilo..."
  },
  "content": "looks like broken config file.\r\n\r\nif you are using the SVN version, it's perhaps some change in the config file format.\r\ncan you change your ~/.config/tint2rc with one in SVN tintrc01, tinrc02,...\r\n\r\nI'll keep backward compatibility between stable release, \r\nbut not between unstable SVN.\r\n\r\n",
  "updates": {
   "status": "Accepted",
   "kind": "projecthosting#issueCommentUpdate"
  },
  "published": "2009-01-21T12:05:19.000Z",
  "id": 1
 },
 {
  "kind": "projecthosting#issueComment",
  "attachments": [
   {
    "mimetype": "image/x-png",
    "attachmentId": "1543071611588087615",
    "fileSize": 7023,
    "fileName": "shot1.png"
   }
  ],
  "canDelete": true,
  "author": {
   "kind": "projecthosting#issuePerson",
   "name": "fritho..."
  },
  "content": "I've tried each in turn, same problem.\r\nI'm currently using the tintrc06 as my config.",
  "updates": {
   "kind": "projecthosting#issueCommentUpdate"
  },
  "published": "2009-01-21T12:33:04.000Z",
  "id": 2
 },
 {
  "kind": "projecthosting#issueComment",
  "canDelete": true,
  "author": {
   "kind": "projecthosting#issuePerson",
   "name": "thilo..."
  },
  "content": "does tint print error when run in terminal ?\r\n\r\nand can you give more information on fluxbox and xorg version,\r\nbecause can't reproduce it here ...\r\n\r\nthanks",
  "updates": {
   "kind": "projecthosting#issueCommentUpdate"
  },
  "published": "2009-01-21T12:52:26.000Z",
  "id": 3
 },
 {
  "kind": "projecthosting#issueComment",
  "canDelete": true,
  "author": {
   "kind": "projecthosting#issuePerson",
   "name": "fritho..."
  },
  "content": "No, tint2 does not produce any output to stderr.\r\n\r\nI've just reproduced the problem on my laptop, which is ia32 architecture, while my\r\ndesktop uses amd64.\r\n\r\nI am using xorg 2:1.4.2-9 and fluxbox 1.0.0+deb1-8. - debian testing.",
  "updates": {
   "kind": "projecthosting#issueCommentUpdate"
  },
  "published": "2009-01-21T13:10:16.000Z",
  "id": 4
 },
 {
  "kind": "projecthosting#issueComment",
  "canDelete": true,
  "author": {
   "kind": "projecthosting#issuePerson",
   "name": "fritho..."
  },
  "content": "Package versions can be misleading when lacking sleep:  xorg 7.3",
  "updates": {
   "kind": "projecthosting#issueCommentUpdate"
  },
  "published": "2009-01-23T11:36:32.000Z",
  "id": 5
 },
 {
  "kind": "projecthosting#issueComment",
  "canDelete": true,
  "author": {
   "kind": "projecthosting#issuePerson",
   "name": "Ivano..."
  },
  "content": "I have exactly the same problem on debian lenny. Nothing is presented in clock region.",
  "updates": {
   "kind": "projecthosting#issueCommentUpdate"
  },
  "published": "2009-01-31T09:08:02.000Z",
  "id": 6
 },
 {
  "kind": "projecthosting#issueComment",
  "canDelete": true,
  "author": {
   "kind": "projecthosting#issuePerson",
   "name": "thilo..."
  },
  "content": "anybody to confirm this problem with latest svn ?\r\n\r\nthanks",
  "updates": {
   "kind": "projecthosting#issueCommentUpdate"
  },
  "published": "2009-02-13T22:03:41.000Z",
  "id": 7
 },
 {
  "kind": "projecthosting#issueComment",
  "canDelete": true,
  "author": {
   "kind": "projecthosting#issuePerson",
   "name": "Ivano..."
  },
  "content": "No more problem for me! Thanks!",
  "updates": {
   "kind": "projecthosting#issueCommentUpdate"
  },
  "published": "2009-03-21T13:48:18.000Z",
  "id": 8
 },
 {
  "kind": "projecthosting#issueComment",
  "canDelete": true,
  "author": {
   "kind": "projecthosting#issuePerson",
   "name": "thilo..."
  },
  "content": "can't reproduce the problem on ubuntu 8.10, uubntu 9.04 and slackware 11, 12.\r\n\r\nclosed.\r\n",
  "updates": {
   "status": "Fixed",
   "kind": "projecthosting#issueCommentUpdate"
  },
  "published": "2009-04-18T15:07:53.000Z",
  "id": 9
 }
]