[
 {
  "kind": "projecthosting#issueComment",
  "attachments": [
   {
    "mimetype": "image/png; charset=binary",
    "attachmentId": "3840000000",
    "fileSize": 58307,
    "fileName": "2012-01-02--1325556011_585x799_scrot.png"
   },
   {
    "mimetype": "image/png; charset=binary",
    "attachmentId": "3840000001",
    "fileSize": 67290,
    "fileName": "2012-01-02--1325555291_702x799_scrot.png"
   },
   {
    "mimetype": "image/png; charset=binary",
    "attachmentId": "3840000002",
    "fileSize": 12418,
    "fileName": "2012-01-02--1325556248_80x558_scrot.png"
   }
  ],
  "canDelete": true,
  "author": {
   "kind": "projecthosting#issuePerson",
   "name": "alfb..."
  },
  "content": "<b>What steps will reproduce the problem?</b>\n<b>1.</b>\npanel_position = bottom right vertical\r\npanel_size = 70% 80\r\ntask_icon = 1\r\ntask_text = 0\r\ntask_centered = 1\r\ntask_maximum_size = 0 0\r\ntask_padding = 0 0\r\n&quot;think that is enough&quot;\r\nresult  icons very very small\r\n<b>2.</b>\ni noted with\r\ntask_padding = 0 14\r\nget centered inverted icons \r\nhigher number higher icon \r\n<b>3.</b>\nwith negative \r\ntask_padding = 0 -14\r\nget no inverted icons \r\nand both case the half of the task\r\nthe issue is with the negative symbol the\r\nfirst parameter dont work \r\n\r\n<b>What is the expected output? What do you see instead?</b>\njust icons centered for each task which has full vertical taskbar height \r\n\r\n<b>What version of the product are you using? On what operating system?</b>\n0.11~svn639-2\r\nOS Crunchbang Linux\r\n\r\n<b>Please provide any additional information below.</b>\ncase 1, case 2 and case 3 in pictures 1,2 and 3\r\n",
  "updates": {
   "kind": "projecthosting#issueCommentUpdate"
  },
  "published": "2012-01-03T02:12:48.000Z",
  "id": 0
 },
 {
  "kind": "projecthosting#issueComment",
  "canDelete": true,
  "author": {
   "kind": "projecthosting#issuePerson",
   "name": "mrovi%interfete-web-club....@gte..."
  },
  "content": "Although I'm not sure I understand what you want to get, this line you give looks suspicious:\r\ntask_maximum_size = 0 0\r\nUse some positive size (at least for the height), and do not use negative padding.",
  "updates": {
   "kind": "projecthosting#issueCommentUpdate"
  },
  "published": "2012-01-03T22:48:53.000Z",
  "id": 1
 },
 {
  "kind": "projecthosting#issueComment",
  "canDelete": true,
  "author": {
   "kind": "projecthosting#issuePerson",
   "name": "alfb..."
  },
  "id": 2,
  "content": "task_maximum_size = 0 0\r\nis the most important line, because i want than each task  extents to all the taskbar in vertical panel, it works as in horizontal panel,  but the icons are lost or very very small that s the problem figure1, and in order to see icons i have to change task_padding values, tile of issue is bad maybe \"icons in task_maximum_size= 0 0 in vertical panel\"",
  "updates": {
   "kind": "projecthosting#issueCommentUpdate"
  },
  "published": "2012-01-06T14:25:12.000Z",
  "deletedBy": {
   "kind": "projecthosting#issuePerson",
   "name": "alfb..."
  }
 },
 {
  "kind": "projecthosting#issueComment",
  "canDelete": true,
  "author": {
   "kind": "projecthosting#issuePerson",
   "name": "alfb..."
  },
  "id": 3,
  "content": "i currently am using task_maximum_size = 0 32, because with any  established value there are no problems",
  "updates": {
   "kind": "projecthosting#issueCommentUpdate"
  },
  "published": "2012-01-06T14:32:27.000Z",
  "deletedBy": {
   "kind": "projecthosting#issuePerson",
   "name": "alfb..."
  }
 },
 {
  "kind": "projecthosting#issueComment",
  "canDelete": true,
  "author": {
   "kind": "projecthosting#issuePerson",
   "name": "alfb..."
  },
  "content": "task_maximum_size = 0 0\r\nis the main line, because i want than each task  extents to all the taskbar in vertical panel,  it should work as in horizontal panel with task_maximum_size = 0 0, and in order to see icons currently i am using task_maximum_size = 0 32,\r\nbecause with any different to -0 second value- there are no problems\r\n\r\n",
  "updates": {
   "kind": "projecthosting#issueCommentUpdate"
  },
  "published": "2012-04-23T17:06:46.000Z",
  "id": 4
 },
 {
  "kind": "projecthosting#issueComment",
  "canDelete": true,
  "author": {
   "kind": "projecthosting#issuePerson",
   "name": "mrovi%interfete-web-club....@gte..."
  },
  "content": "I looked over the layout code and I can say for sure that the layout you describe is not possible. First of all, a height of 0 is not accepted; but anyways for the width a 0 is just replaced by the monitor width, so entering large value for height would work the same. However, a big problem is that the icon size is static (does not adapt to task resize events) and changing this is complicated and could introduce other problems. So unfortunately I cannot help with this.",
  "updates": {
   "kind": "projecthosting#issueCommentUpdate"
  },
  "published": "2012-04-29T22:15:32.000Z",
  "id": 5
 },
 {
  "kind": "projecthosting#issueComment",
  "canDelete": true,
  "author": {
   "kind": "projecthosting#issuePerson",
   "name": "mrovi9..."
  },
  "content": "",
  "updates": {
   "kind": "projecthosting#issueCommentUpdate",
   "labels": [
    "Component-Taskbar"
   ]
  },
  "published": "2015-02-02T00:27:29.000Z",
  "id": 6
 },
 {
  "kind": "projecthosting#issueComment",
  "canDelete": true,
  "author": {
   "kind": "projecthosting#issuePerson",
   "name": "mrovi9..."
  },
  "content": "",
  "updates": {
   "status": "WontFix",
   "kind": "projecthosting#issueCommentUpdate"
  },
  "published": "2015-02-05T14:17:44.000Z",
  "id": 7
 }
]