[
 {
  "kind": "projecthosting#issueComment",
  "attachments": [
   {
    "mimetype": "application/octet-stream",
    "attachmentId": "4420000000",
    "fileSize": 580,
    "fileName": "tint2-0.11-full-battery.patch"
   }
  ],
  "canDelete": true,
  "author": {
   "kind": "projecthosting#issuePerson",
   "name": "santa...."
  },
  "content": "I've notices 3.12 kernel reports battery charge_now value equal to charge_full_design when AC is plugged. This emerges negative battery percentage value.\r\n\r\nHW: Dell Inspiron M5110 with vanilla 3.12.7 kernel running (Gentoo GNU/Linux ~amd64).\r\ntint2 version: tint2-0.11 with https://code.google.com/p/tint2/issues/detail?id=299 patch applied by Gentoo tint2 package maintainers.\r\nAC plugged charge_now, charge_full, charge_full_design: 4400000, 2665000, 4400000\r\nAC unplugged charge_now, charge_full, charge_full_design: 2635000, 2665000, 4400000\r\n\r\nProposed patch attached.",
  "updates": {
   "kind": "projecthosting#issueCommentUpdate"
  },
  "published": "2014-01-11T17:15:00.000Z",
  "id": 0
 },
 {
  "kind": "projecthosting#issueComment",
  "canDelete": true,
  "author": {
   "kind": "projecthosting#issuePerson",
   "name": "mrovi9..."
  },
  "content": "Thanks, fixed in r682.",
  "updates": {
   "status": "Fixed",
   "kind": "projecthosting#issueCommentUpdate"
  },
  "published": "2015-02-01T23:42:31.000Z",
  "id": 1
 }
]