[
 {
  "kind": "projecthosting#issueComment",
  "canDelete": true,
  "author": {
   "kind": "projecthosting#issuePerson",
   "name": "psyco430..."
  },
  "content": "<b>What steps will reproduce the problem?</b>\n1. Launch Banshee and minimize it to system  tray\r\n2. kill tint2\r\n3. launch tint2\r\n\r\n<b>What is the expected output? What do you see instead?</b>\nI expect to see my banshee tray icon still their, instead its gone.\r\n\r\n<b>What version of the product are you using? On what operating system?</b>\n0.11 svn638-1\r\n\r\nUbuntu 10.10 running openbox WM\r\n\r\n<b>Please provide any additional information below.</b>\nto be honest its not a major problem for me because it only occurs when i'm themeing my tint2 and im refreshing to see the changes, but it is annoying having to kill off banshee and then relaunch to get my music back.\r\n",
  "updates": {
   "kind": "projecthosting#issueCommentUpdate"
  },
  "published": "2011-07-04T06:43:44.000Z",
  "id": 0
 },
 {
  "kind": "projecthosting#issueComment",
  "canDelete": true,
  "author": {
   "kind": "projecthosting#issuePerson",
   "name": "sir.mel..."
  },
  "content": "This is not only Banshee related:\r\nSee Issue 334\r\nShot get marked as duplicate",
  "updates": {
   "kind": "projecthosting#issueCommentUpdate"
  },
  "published": "2012-07-12T09:03:06.000Z",
  "id": 1
 },
 {
  "kind": "projecthosting#issueComment",
  "canDelete": true,
  "author": {
   "kind": "projecthosting#issuePerson",
   "name": "mrovi9..."
  },
  "content": "",
  "updates": {
   "status": "Duplicate",
   "kind": "projecthosting#issueCommentUpdate",
   "mergedInto": "275"
  },
  "published": "2015-01-22T00:23:44.000Z",
  "id": 2
 }
]