[
 {
  "kind": "projecthosting#issueComment",
  "canDelete": true,
  "author": {
   "kind": "projecthosting#issuePerson",
   "name": "kes..."
  },
  "content": "<b>What steps will reproduce the problem?</b>\n1. Start r89 tint2 on archlinux\r\n\r\n<b>What is the expected output? What do you see instead?</b>\nSee screen shot. The battery area is overlapping the clock when before it\r\ndid not. It should not do this.\r\n\r\n<b>Please provide any additional information below.</b>\nAny ideas on the systray?\r\n",
  "updates": {
   "kind": "projecthosting#issueCommentUpdate"
  },
  "published": "2009-06-06T22:05:31.000Z",
  "id": 0
 },
 {
  "kind": "projecthosting#issueComment",
  "canDelete": true,
  "author": {
   "kind": "projecthosting#issuePerson",
   "name": "thilo..."
  },
  "content": "screenshot ??\r\n\r\nthanks",
  "updates": {
   "kind": "projecthosting#issueCommentUpdate"
  },
  "published": "2009-06-07T07:40:36.000Z",
  "id": 1
 },
 {
  "kind": "projecthosting#issueComment",
  "attachments": [
   {
    "mimetype": "image/x-png",
    "attachmentId": "-2380088927608054487",
    "fileSize": 126410,
    "fileName": "err.png"
   }
  ],
  "canDelete": true,
  "author": {
   "kind": "projecthosting#issuePerson",
   "name": "kes..."
  },
  "content": "wooops hehehehe... i was heading out when i filed this report.",
  "updates": {
   "kind": "projecthosting#issueCommentUpdate"
  },
  "published": "2009-06-07T18:24:16.000Z",
  "id": 2
 },
 {
  "kind": "projecthosting#issueComment",
  "canDelete": true,
  "author": {
   "kind": "projecthosting#issuePerson",
   "name": "thilo..."
  },
  "content": "fixed in svn r105.\r\nplease confirm if it's ok (or not).",
  "updates": {
   "kind": "projecthosting#issueCommentUpdate"
  },
  "published": "2009-06-08T18:51:33.000Z",
  "id": 3
 },
 {
  "kind": "projecthosting#issueComment",
  "canDelete": true,
  "author": {
   "kind": "projecthosting#issuePerson",
   "name": "kes..."
  },
  "content": "Looks like it is fine. Can't wait to see some work on systray ;)",
  "updates": {
   "kind": "projecthosting#issueCommentUpdate"
  },
  "published": "2009-06-09T05:49:23.000Z",
  "id": 4
 },
 {
  "kind": "projecthosting#issueComment",
  "canDelete": true,
  "author": {
   "kind": "projecthosting#issuePerson",
   "name": "thilo..."
  },
  "content": "",
  "updates": {
   "status": "Fixed",
   "kind": "projecthosting#issueCommentUpdate"
  },
  "published": "2009-06-09T13:25:59.000Z",
  "id": 5
 }
]