[
 {
  "kind": "projecthosting#issueComment",
  "canDelete": true,
  "author": {
   "kind": "projecthosting#issuePerson",
   "name": "alfb..."
  },
  "content": "<b>What steps will reproduce the problem?</b>\n1. mouse over icon in taskbar\r\n2. mouse over icon in systray\r\n<b>3.</b>\n\r\n<b>What is the expected output? What do you see instead?</b>\ni expected the same tooltip in taskbar and systray\r\n\r\n<b>What version of the product are you using? On what operating system?</b>\n0.11~svn639-2\r\nLinux crunchbang 3.2.0-0.bpo.1-amd64\r\n<b>Please provide any additional information below.</b>\ntooltip systray seems using the settings of openbox or gtk i dont know of that, sorry in advance if wrong and  english",
  "updates": {
   "kind": "projecthosting#issueCommentUpdate"
  },
  "published": "2012-03-05T11:48:22.000Z",
  "id": 0
 },
 {
  "kind": "projecthosting#issueComment",
  "canDelete": true,
  "author": {
   "kind": "projecthosting#issuePerson",
   "name": "mrovi%interfete-web-club....@gte..."
  },
  "content": "Tooltips for systray icons are not shown by tint2, they are created and shown by the applications that own those icons and thus look in whatever way those apps make them. Tint2 has no control over this.\r\n\r\nHowever, to have the tooltips look the same everywhere you can change the appearance of the tint2 tooltips to match your desktop theme (http://code.google.com/p/tint2/wiki/Configure#Tooltip) or you can do it the other way around, change your desktop theme to show tooltips that look like tint2's.",
  "updates": {
   "kind": "projecthosting#issueCommentUpdate"
  },
  "published": "2012-03-14T02:41:23.000Z",
  "id": 1
 },
 {
  "kind": "projecthosting#issueComment",
  "canDelete": true,
  "author": {
   "kind": "projecthosting#issuePerson",
   "name": "alfb..."
  },
  "content": "ok",
  "updates": {
   "kind": "projecthosting#issueCommentUpdate"
  },
  "published": "2012-03-14T15:05:00.000Z",
  "id": 2
 },
 {
  "kind": "projecthosting#issueComment",
  "canDelete": true,
  "author": {
   "kind": "projecthosting#issuePerson",
   "name": "goo...@cra..."
  },
  "content": "",
  "updates": {
   "status": "Invalid",
   "kind": "projecthosting#issueCommentUpdate"
  },
  "published": "2015-01-22T13:18:59.000Z",
  "id": 3
 }
]