[
 {
  "kind": "projecthosting#issueComment",
  "canDelete": true,
  "author": {
   "kind": "projecthosting#issuePerson",
   "name": "t.hy..."
  },
  "content": "<b>What steps will reproduce the problem?</b>\n1. Using %L or %3N, %6N etc. does not function.\r\n2. N/A\r\n3. N/A\r\n\r\n<b>What is the expected output? What do you see instead?</b>\n%H:%M:%S:%3N is supposed to provide 12:47:21:030 instead its 12:47:21:%3N\r\n\r\n<b>What version of the product are you using? On what operating system?</b>\n#! CrunchBang Linux v 9.04.01 - Test 64-bit\r\n\r\n<b>Please provide any additional information below.</b>\nNot a glitch, just a feature I think some of us would like to implement\r\nsince many other strftime based programs have this ability.",
  "updates": {
   "kind": "projecthosting#issueCommentUpdate"
  },
  "published": "2009-07-07T16:48:51.000Z",
  "id": 0
 },
 {
  "kind": "projecthosting#issueComment",
  "canDelete": true,
  "author": {
   "kind": "projecthosting#issuePerson",
   "name": "t.hy..."
  },
  "content": "Version is 0.7 Revision 139-1",
  "updates": {
   "kind": "projecthosting#issueCommentUpdate"
  },
  "published": "2009-07-07T16:50:06.000Z",
  "id": 1
 },
 {
  "kind": "projecthosting#issueComment",
  "canDelete": true,
  "author": {
   "kind": "projecthosting#issuePerson",
   "name": "thilo..."
  },
  "content": "Hi,\r\n\r\nit's possible to fixed this.\r\n\r\nbut keep in mind tint2 use a time precision of 500ms to keep cpu low.\r\nso you will not get valuable information.\r\n\r\n",
  "updates": {
   "status": "Accepted",
   "kind": "projecthosting#issueCommentUpdate",
   "labels": [
    "-Type-Defect",
    "Type-Enhancement"
   ]
  },
  "published": "2009-07-07T17:28:54.000Z",
  "id": 2
 },
 {
  "kind": "projecthosting#issueComment",
  "canDelete": true,
  "author": {
   "kind": "projecthosting#issuePerson",
   "name": "t.hy..."
  },
  "content": "I suppose that makes sense.  Anyway you could tell me where to modify this fix so I \r\ncould use it with a little more accuracy at the cost of CPU cycles?",
  "updates": {
   "kind": "projecthosting#issueCommentUpdate"
  },
  "published": "2009-07-07T20:13:57.000Z",
  "id": 3
 },
 {
  "kind": "projecthosting#issueComment",
  "canDelete": true,
  "author": {
   "kind": "projecthosting#issuePerson",
   "name": "thilo..."
  },
  "content": "hummm...\r\n\r\ncan't work because strftime doen't support %L, %N.\r\nsee http://linux.die.net/man/3/strftime\r\n\r\ncan you point me where you see this ?",
  "updates": {
   "kind": "projecthosting#issueCommentUpdate"
  },
  "published": "2009-07-07T21:22:50.000Z",
  "id": 4
 },
 {
  "kind": "projecthosting#issueComment",
  "canDelete": true,
  "author": {
   "kind": "projecthosting#issuePerson",
   "name": "t.hy..."
  },
  "content": "I can find examples in a few spots but here it is two thirds the way down.  It has it \r\nunder strftime().\r\n\r\nIt had everything else the same as the site you showed me.\r\n\r\nhttp://ruby-doc.org/core-1.9/classes/Time.html",
  "updates": {
   "kind": "projecthosting#issueCommentUpdate"
  },
  "published": "2009-07-07T21:40:17.000Z",
  "id": 5
 },
 {
  "kind": "projecthosting#issueComment",
  "canDelete": true,
  "author": {
   "kind": "projecthosting#issuePerson",
   "name": "thilo..."
  },
  "content": "But it's ruby library.\r\n\r\ntint2 is build in C. \r\n\r\nRuby is an interpreted language.\r\nI supposed they implement some new capability to strftime().\r\n",
  "updates": {
   "kind": "projecthosting#issueCommentUpdate"
  },
  "published": "2009-07-07T22:22:23.000Z",
  "id": 6
 },
 {
  "kind": "projecthosting#issueComment",
  "canDelete": true,
  "author": {
   "kind": "projecthosting#issuePerson",
   "name": "t.hy..."
  },
  "content": "I am an idiota.  Sorry : P  Anyway we can get that as a future feature ??  Just because \r\nits a low CPU by default doesn't mean it has to stay that way : )",
  "updates": {
   "kind": "projecthosting#issueCommentUpdate"
  },
  "published": "2009-07-07T22:38:30.000Z",
  "id": 7
 },
 {
  "kind": "projecthosting#issueComment",
  "canDelete": true,
  "author": {
   "kind": "projecthosting#issuePerson",
   "name": "thilo..."
  },
  "content": "",
  "updates": {
   "kind": "projecthosting#issueCommentUpdate",
   "labels": [
    "-Type-Enhancement",
    "Type-Other"
   ]
  },
  "published": "2009-07-08T07:09:30.000Z",
  "id": 8
 },
 {
  "kind": "projecthosting#issueComment",
  "canDelete": true,
  "author": {
   "kind": "projecthosting#issuePerson",
   "name": "thilo..."
  },
  "content": "closed this one for now.",
  "updates": {
   "status": "WontFix",
   "kind": "projecthosting#issueCommentUpdate"
  },
  "published": "2009-08-29T15:36:38.000Z",
  "id": 9
 }
]