[
 {
  "kind": "projecthosting#issueComment",
  "canDelete": true,
  "author": {
   "kind": "projecthosting#issuePerson",
   "name": "1337hi..."
  },
  "content": "<b>What steps will reproduce the problem?</b>\n1. Download tint2 from repos or from source\r\n2. Try to run from autostart or manually from terminal\r\n3. Nothingg happens :(\r\n\r\n\r\nTrying to make from source gives this output:\r\n\r\nsrc/ make\r\ncc  -Wall -g `pkg-config --cflags --libs cairo pangocairo x11 xinerama\r\nimlib2 glib-2.0` -o tint tint.c server.c window.c task.c launcher.c\r\nvisual.c config.c\r\n/bin/sh: pkg-config: not found\r\n/bin/sh: cc: not found\r\nmake: *** [tint] Error 127\r\nsrc/\r\n\r\ntrying to run tint2 in terminal gives\r\n\r\n~/ tint2\r\ntint2 : nb monitor 1, nb desktop 2\r\nSegmentation fault\r\n\r\nthis is on my Eee PC running crunchbang v9.04 kernel 2.6.28-12-netbook-eeepc\r\n\r\n\r\n<b>What version of the product are you using? On what operating system?</b>\n\r\n\r\n<b>Please provide any additional information below.</b>\n\r\n",
  "updates": {
   "kind": "projecthosting#issueCommentUpdate"
  },
  "published": "2009-05-14T00:16:16.000Z",
  "id": 0
 },
 {
  "kind": "projecthosting#issueComment",
  "canDelete": true,
  "author": {
   "kind": "projecthosting#issuePerson",
   "name": "thilo..."
  },
  "content": "the package include tint2 executable. but it's a mistake. \r\nyou need first to remove tint2\r\ncd src\r\nrm tint2\r\n\r\nand then build it with 'make'.\r\nof course, you need pkg-config package.\r\n\r\nsee http://code.google.com/p/tint2/wiki/Install\r\n",
  "updates": {
   "status": "Accepted",
   "kind": "projecthosting#issueCommentUpdate"
  },
  "published": "2009-05-14T09:36:18.000Z",
  "id": 1
 },
 {
  "kind": "projecthosting#issueComment",
  "canDelete": true,
  "author": {
   "kind": "projecthosting#issuePerson",
   "name": "1337hi..."
  },
  "content": "ok I followed your instructions, that let me make and then make install. running\r\ntint2 in terminal still gives me\r\n\r\nsrc/ tint2\r\ntint2 : nb monitor 1, nb desktop 2\r\nSegmentation fault\r\nsrc/ \r\n\r\nalso:\r\n1) the info from the link you posted should be in the README file (ie \r\n       \"sudo aptitude install libcairo2-dev libpango1.0-dev libglib2.0-dev\r\nlibimlib2-dev libxinerama-dev libxrandr-dev\"\r\n\r\n2) tint2 package in ubuntu's repo doesn't work\r\ntint2 package from the killeroid ppa doesn't work\r\ninstalling from source didn't work\r\n\r\n\r\nthis panel looks amazing but it would help if i could install it! :(",
  "updates": {
   "kind": "projecthosting#issueCommentUpdate"
  },
  "published": "2009-05-14T19:59:05.000Z",
  "id": 2
 },
 {
  "kind": "projecthosting#issueComment",
  "canDelete": true,
  "author": {
   "kind": "projecthosting#issuePerson",
   "name": "kwakuyeb..."
  },
  "content": "@1337hippo \r\n In response to your point #1, the tint archive containing the readme contains the\r\nsource code that you compile on your system. That system might not be ubuntu(or a\r\ndebian based system) and so the libraries needed and the package manager will not be\r\nthe same/have the same name and thats why the readme lists the libraries by their\r\ncommonly known names. \r\n\r\nOn your second point,the package in the ubuntu repos is an old release(tint 0.6). Its\r\nbeen confirmed to work and thats why its was included in the ubuntu repos. The\r\npackage from my repository(Killeroid PPA) also has been confirmed to work. My package\r\nis actually the current version copied over in the Crunchbang repos.\r\n\r\nThe latest stable release of crunchbang is crunchbang 8.10.02 . From your original\r\nreport, it seems you are running an unstable/development/alpha/beta version of\r\ncrunchbang.This is just my two cents but your problem is probably due to something\r\nbeing changed in the os, not due to the tint packages because both the old and new\r\npackages have been confirmed to run on both the latest stable ubuntu and the latest\r\nstable crunchbanglinux. \r\n",
  "updates": {
   "kind": "projecthosting#issueCommentUpdate"
  },
  "published": "2009-05-15T22:05:27.000Z",
  "id": 3
 },
 {
  "kind": "projecthosting#issueComment",
  "canDelete": true,
  "author": {
   "kind": "projecthosting#issuePerson",
   "name": "1337hi..."
  },
  "content": "that sounds reasonable.\r\n\r\nactually, what I meant by #! 9.04 is that it's Jaunty with all the packages that\r\ncrunchbang uses (so openbox WM, etc etc).\r\n\r\nit's kind of weird that the packages don't work, then (I was especially surprised\r\nthat tint v0.6 in the Ubuntu repo didn't work)",
  "updates": {
   "kind": "projecthosting#issueCommentUpdate"
  },
  "published": "2009-05-15T22:11:08.000Z",
  "id": 4
 },
 {
  "kind": "projecthosting#issueComment",
  "canDelete": true,
  "author": {
   "kind": "projecthosting#issuePerson",
   "name": "thilo..."
  },
  "content": "changed this report to 'other', \r\nbecause tint2 works on Ubuntu 9.04.\r\n\r\nwill close it when tint2-0.7 is released.\r\n",
  "updates": {
   "kind": "projecthosting#issueCommentUpdate",
   "labels": [
    "-Type-Defect",
    "Type-Other"
   ]
  },
  "published": "2009-05-31T22:36:53.000Z",
  "id": 5
 },
 {
  "kind": "projecthosting#issueComment",
  "canDelete": true,
  "author": {
   "kind": "projecthosting#issuePerson",
   "name": "thilo..."
  },
  "content": "",
  "updates": {
   "status": "Fixed",
   "kind": "projecthosting#issueCommentUpdate"
  },
  "published": "2009-06-18T19:03:56.000Z",
  "id": 6
 },
 {
  "kind": "projecthosting#issueComment",
  "canDelete": true,
  "author": {
   "kind": "projecthosting#issuePerson",
   "name": "1337hi..."
  },
  "content": "follow-up:\r\n\r\ndownloaded tint2-0.7_beta2 and followed the install instructions. Installation looks\r\nlike it went fine.\r\n\r\ntint2 in terminal:\r\n~/ tint2\r\ntint2 : nb monitor 1, nb desktop 2\r\nSegmentation fault\r\n\r\nput tint2 on autostart. here's dmesg:\r\n~/ dmesg | tail\r\n[ 3543.995310] [drm:i915_getparam] *ERROR* Unknown parameter 6\r\n[ 3545.052767] [drm:i915_getparam] *ERROR* Unknown parameter 6\r\n[ 3552.178034] tint2[19105]: segfault at 14 ip 0804dc41 sp bfcad600 error 4 in\r\ntint2[8048000+f000]\r\n[ 3596.664172] usb 2-1: USB disconnect, address 2\r\n[ 3605.429140] [drm:i915_get_vblank_counter] *ERROR* trying to get vblank count for\r\ndisabled pipe 0\r\n[ 3605.437168] mtrr: no MTRR for d0000000,10000000 found\r\n[ 3608.456723] [drm:i915_setparam] *ERROR* unknown parameter 4\r\n[ 3608.456778] [drm:i915_getparam] *ERROR* Unknown parameter 6\r\n[ 3609.513286] [drm:i915_getparam] *ERROR* Unknown parameter 6\r\n[ 3620.384596] tint2[19661]: segfault at 14 ip 0804dc41 sp bf9e72f0 error 4 in\r\ntint2[8048000+f000]\r\n~/ \r\n\r\nthoughts? I made sure to purge my old tint2 version before I did this.",
  "updates": {
   "kind": "projecthosting#issueCommentUpdate"
  },
  "published": "2009-06-23T23:51:38.000Z",
  "id": 7
 },
 {
  "kind": "projecthosting#issueComment",
  "canDelete": true,
  "author": {
   "kind": "projecthosting#issuePerson",
   "name": "1337hi..."
  },
  "content": "fixed in v0.7\r\n\r\n:)",
  "updates": {
   "kind": "projecthosting#issueCommentUpdate"
  },
  "published": "2009-07-07T04:28:43.000Z",
  "id": 8
 },
 {
  "kind": "projecthosting#issueComment",
  "canDelete": true,
  "author": {
   "kind": "projecthosting#issuePerson",
   "name": "thilo..."
  },
  "content": "thanks to report it and welcome.",
  "updates": {
   "kind": "projecthosting#issueCommentUpdate"
  },
  "published": "2009-07-07T08:52:52.000Z",
  "id": 9
 }
]