[
 {
  "kind": "projecthosting#issueComment",
  "canDelete": true,
  "author": {
   "kind": "projecthosting#issuePerson",
   "name": "hardcorps..."
  },
  "content": "Has anyone patched tint2 to take a maximize/restore option on middle click?\r\nIf not, is this likely to be implemented?",
  "updates": {
   "kind": "projecthosting#issueCommentUpdate"
  },
  "published": "2009-08-07T04:28:26.000Z",
  "id": 0
 },
 {
  "kind": "projecthosting#issueComment",
  "canDelete": true,
  "author": {
   "kind": "projecthosting#issuePerson",
   "name": "thilo..."
  },
  "content": "svn r156 fixed it.\r\nnew mouse action 'maximize_restore'",
  "updates": {
   "status": "Fixed",
   "kind": "projecthosting#issueCommentUpdate"
  },
  "published": "2009-08-09T15:58:50.000Z",
  "id": 1
 }
]