[
 {
  "kind": "projecthosting#issueComment",
  "canDelete": true,
  "author": {
   "kind": "projecthosting#issuePerson",
   "name": "michaelseiw..."
  },
  "content": "<b>What steps will reproduce the problem?</b>\n1. start an application on workspace 1 (workspace 2 does not exist at that\r\ntime)\r\n2. retag it with Mod1+Shift+2 (workspace 2 gets created and the focused\r\nclient is moved to that workspace)\r\n3. tint2 crashes...\r\n\r\n<b>What is the expected output? What do you see instead?</b>\n\r\nA new taskbar should appear with the retagged client on it.\r\nInstead tint segfaults:\r\n\r\n[1]    15859 segmentation fault (core dumped)  tint2\r\n\r\n<b>What version of the product are you using? On what operating system?</b>\n\r\ntint2 version 0.9rc1 on Archlinux.\r\n",
  "updates": {
   "kind": "projecthosting#issueCommentUpdate"
  },
  "published": "2010-05-08T17:39:12.000Z",
  "id": 0
 },
 {
  "kind": "projecthosting#issueComment",
  "canDelete": true,
  "author": {
   "kind": "projecthosting#issuePerson",
   "name": "thilo..."
  },
  "content": "there is many fixed since tin2-0.9\r\ncan you test it with tint2 latest SVN ?\r\n",
  "updates": {
   "status": "Accepted",
   "kind": "projecthosting#issueCommentUpdate"
  },
  "published": "2010-05-08T19:05:15.000Z",
  "id": 1
 },
 {
  "kind": "projecthosting#issueComment",
  "canDelete": true,
  "author": {
   "kind": "projecthosting#issuePerson",
   "name": "michaelseiw..."
  },
  "content": "I already did this. The behaviour is exactly the same.",
  "updates": {
   "kind": "projecthosting#issueCommentUpdate"
  },
  "published": "2010-05-08T19:12:44.000Z",
  "id": 2
 },
 {
  "kind": "projecthosting#issueComment",
  "canDelete": true,
  "author": {
   "kind": "projecthosting#issuePerson",
   "name": "thilo..."
  },
  "content": "can't reproduce the crash here with tint2-svn-r462 and wmii-3.6 on Ubuntu 9.04 and\r\n10.04 (with default wmii config).\r\n- witch version are you using\r\n- can you reproduce the bug on each try\r\n  if so, post you tint2 config file\r\n\r\n",
  "updates": {
   "kind": "projecthosting#issueCommentUpdate"
  },
  "published": "2010-05-19T13:23:59.000Z",
  "id": 3
 },
 {
  "kind": "projecthosting#issueComment",
  "canDelete": true,
  "author": {
   "kind": "projecthosting#issuePerson",
   "name": "michaelseiw..."
  },
  "content": "I use the latest mercurial version of wmii and also tint2-svn-r462. The tint2 config\r\ndoesn't seem to be the issue because I also tried it with the default config. Maybe\r\nit's a wmii bug.",
  "updates": {
   "kind": "projecthosting#issueCommentUpdate"
  },
  "published": "2010-05-19T17:22:40.000Z",
  "id": 4
 },
 {
  "kind": "projecthosting#issueComment",
  "canDelete": true,
  "author": {
   "kind": "projecthosting#issuePerson",
   "name": "gereon.kre..."
  },
  "content": "Basically same problem here. tint2 doesn't always crash, but too often.\r\nA friend of mine has the same problem with awesome...\r\n\r\ntint2 version 0.11+svn20110307\r\nwmii-3.9.2\r\n\r\n",
  "updates": {
   "kind": "projecthosting#issueCommentUpdate"
  },
  "published": "2012-01-19T11:42:14.000Z",
  "id": 5
 },
 {
  "kind": "projecthosting#issueComment",
  "canDelete": true,
  "author": {
   "kind": "projecthosting#issuePerson",
   "name": "mrovi9..."
  },
  "content": "",
  "updates": {
   "kind": "projecthosting#issueCommentUpdate",
   "labels": [
    "Component-Taskbar",
    "wmii"
   ]
  },
  "published": "2015-02-02T00:55:05.000Z",
  "id": 6
 },
 {
  "kind": "projecthosting#issueComment",
  "canDelete": true,
  "author": {
   "kind": "projecthosting#issuePerson",
   "name": "mrovi9..."
  },
  "content": "Thank you for the report, and sorry for the lack of activity. We would like to know if this issue still affects anyone, otherwise we will close the bug.\r\n\r\nSome recent commits addressed various segfaults in tint2.",
  "updates": {
   "status": "NeedInfo",
   "kind": "projecthosting#issueCommentUpdate"
  },
  "published": "2015-02-14T10:20:49.000Z",
  "id": 7
 }
]