[
 {
  "kind": "projecthosting#issueComment",
  "canDelete": true,
  "author": {
   "kind": "projecthosting#issuePerson",
   "name": "quu..."
  },
  "content": "I like the combination of a &quot;multi_desktop&quot; task bar in combination with\r\n&quot;task_text&quot; set to 0.\r\n\r\nFor the rare cases when there are multiple open windows of the same\r\napplication which share one application icon (e.g. Firefox, Gimp), it would\r\nbe great if tint2 supported tooltips showing the name of the window when\r\nhovering with the mouse over the window's symbol in the task bar.",
  "updates": {
   "kind": "projecthosting#issueCommentUpdate"
  },
  "published": "2009-07-10T21:15:06.000Z",
  "id": 0
 },
 {
  "kind": "projecthosting#issueComment",
  "canDelete": true,
  "author": {
   "kind": "projecthosting#issuePerson",
   "name": "thilo..."
  },
  "content": "",
  "updates": {
   "status": "Accepted",
   "kind": "projecthosting#issueCommentUpdate",
   "labels": [
    "-Type-Defect",
    "Type-Enhancement"
   ]
  },
  "published": "2009-07-10T21:46:52.000Z",
  "id": 1
 },
 {
  "kind": "projecthosting#issueComment",
  "canDelete": true,
  "author": {
   "kind": "projecthosting#issuePerson",
   "name": "thilo..."
  },
  "content": "Issue 124 has been merged into this issue.",
  "updates": {
   "kind": "projecthosting#issueCommentUpdate"
  },
  "published": "2009-08-29T15:09:57.000Z",
  "id": 2
 },
 {
  "kind": "projecthosting#issueComment",
  "canDelete": true,
  "author": {
   "kind": "projecthosting#issuePerson",
   "name": "Andreas.Fin..."
  },
  "content": "",
  "updates": {
   "owner": "Andreas.Fink85",
   "kind": "projecthosting#issueCommentUpdate"
  },
  "published": "2009-09-14T10:45:28.000Z",
  "id": 3
 },
 {
  "kind": "projecthosting#issueComment",
  "canDelete": true,
  "author": {
   "kind": "projecthosting#issuePerson",
   "name": "thilo..."
  },
  "content": "and the tooltip could be also interesting when task_text = 1.\r\n\r\n",
  "updates": {
   "kind": "projecthosting#issueCommentUpdate"
  },
  "published": "2009-09-14T11:01:53.000Z",
  "id": 4
 },
 {
  "kind": "projecthosting#issueComment",
  "canDelete": true,
  "author": {
   "kind": "projecthosting#issuePerson",
   "name": "Andreas.Fin..."
  },
  "content": "I'll actually implement a feature where you specify in the config whether you want to\r\nhave tooltip enabled at all or not... So it's not dependend on task_text or some\r\nother settings in the config file...",
  "updates": {
   "kind": "projecthosting#issueCommentUpdate"
  },
  "published": "2009-09-14T11:06:36.000Z",
  "id": 5
 },
 {
  "kind": "projecthosting#issueComment",
  "canDelete": true,
  "author": {
   "kind": "projecthosting#issuePerson",
   "name": "Andreas.Fin..."
  },
  "content": "First version of tooltips is realized... So try it out and give some feedback if\r\nthat's the expected behaviour or not.\r\n@thierry: Could you have a look at the tooltip_update() method to see if the drawing\r\nis done correctly, since it's the first time I'm using cairo and pango ;).\r\n\r\nProblems so far with the tooltip:\r\n- The alpha value of the background color is ignored, since we do not have real\r\ntransparency\r\n- The rounded value of the background is ignored for the same reason\r\n\r\nOne last note: The timeout can also be set to 0, which implies that the show/hide\r\nevent occurs directly.\r\n",
  "updates": {
   "kind": "projecthosting#issueCommentUpdate"
  },
  "published": "2009-09-14T21:35:31.000Z",
  "id": 6
 },
 {
  "kind": "projecthosting#issueComment",
  "canDelete": true,
  "author": {
   "kind": "projecthosting#issuePerson",
   "name": "thilo..."
  },
  "content": "for me it's good as it is. thanks.\r\n",
  "updates": {
   "kind": "projecthosting#issueCommentUpdate"
  },
  "published": "2009-09-15T07:51:34.000Z",
  "id": 7
 },
 {
  "kind": "projecthosting#issueComment",
  "canDelete": true,
  "author": {
   "kind": "projecthosting#issuePerson",
   "name": "quu..."
  },
  "content": "Works great. Thanks!",
  "updates": {
   "kind": "projecthosting#issueCommentUpdate"
  },
  "published": "2009-09-15T15:59:46.000Z",
  "id": 8
 },
 {
  "kind": "projecthosting#issueComment",
  "canDelete": true,
  "author": {
   "kind": "projecthosting#issuePerson",
   "name": "Andreas.Fin..."
  },
  "content": "",
  "updates": {
   "status": "Fixed",
   "kind": "projecthosting#issueCommentUpdate"
  },
  "published": "2009-09-18T06:43:21.000Z",
  "id": 9
 }
]