[
 {
  "kind": "projecthosting#issueComment",
  "canDelete": true,
  "author": {
   "kind": "projecthosting#issuePerson",
   "name": "pablo.olmosdeaguil..."
  },
  "content": "<b>What steps will reproduce the problem?</b>\n1. Put autohide = 1\r\n2. Put systray = 0\r\n3. Launch tint2\r\n\r\n<b>What is the expected output? What do you see instead?</b>\n\r\n$~ tint2 -c .config/tint2/fecha\r\nreal transparency on... depth: 32\r\ntint2 : nb monitor 1, nb monitor used 1, nb desktop 2\r\nViolaci\u00f3n de segmento\r\n(Segmentation fault)\r\n\r\n<b>What version of the product are you using? On what operating system?</b>\ntint2 version 0.9rc1 on Arch Linux installed from Comunnity repo\r\n\r\n<b>Please provide any additional information below.</b>\nRight now using the latest version from AUR (svn-402-1) is working, just\r\nthought that could be useful for you to know :).",
  "updates": {
   "kind": "projecthosting#issueCommentUpdate"
  },
  "published": "2010-04-18T03:39:47.000Z",
  "id": 0
 },
 {
  "kind": "projecthosting#issueComment",
  "canDelete": true,
  "author": {
   "kind": "projecthosting#issuePerson",
   "name": "thilo..."
  },
  "content": "this look fixed with latest SVN.\r\ncan you post your tint2rc to be sure.\r\n",
  "updates": {
   "kind": "projecthosting#issueCommentUpdate"
  },
  "published": "2010-04-18T20:40:47.000Z",
  "id": 1
 },
 {
  "kind": "projecthosting#issueComment",
  "canDelete": true,
  "author": {
   "kind": "projecthosting#issuePerson",
   "name": "thilo..."
  },
  "content": "",
  "updates": {
   "status": "Accepted",
   "kind": "projecthosting#issueCommentUpdate"
  },
  "published": "2010-04-18T20:58:02.000Z",
  "id": 2
 },
 {
  "kind": "projecthosting#issueComment",
  "canDelete": true,
  "author": {
   "kind": "projecthosting#issuePerson",
   "name": "pablo.olmosdeaguil..."
  },
  "content": "Yes, it is fixed at least in the r402... I just wanted for you to know =).",
  "updates": {
   "kind": "projecthosting#issueCommentUpdate"
  },
  "published": "2010-04-18T21:54:24.000Z",
  "id": 3
 },
 {
  "kind": "projecthosting#issueComment",
  "canDelete": true,
  "author": {
   "kind": "projecthosting#issuePerson",
   "name": "thilo..."
  },
  "content": "",
  "updates": {
   "status": "Fixed",
   "kind": "projecthosting#issueCommentUpdate"
  },
  "published": "2010-04-20T11:22:13.000Z",
  "id": 4
 }
]