[
 {
  "kind": "projecthosting#issueComment",
  "canDelete": true,
  "author": {
   "kind": "projecthosting#issuePerson",
   "name": "percy...."
  },
  "content": "<b>What steps will reproduce the problem?</b>\n1. metacity + tint2\r\n<b>2.</b>\n<b>3.</b>\n\r\n<b>What is the expected output? What do you see instead?</b>\n\r\ntint2 : nb monitor 1, nb desktop 4\r\nclock_width 0, new_width 101\r\nresize_systray 1145 0\r\ndraw_systray 1145 0\r\nAborted\r\n\r\nadd_icon abort\r\n// The traywin must have its id and type set.\r\ngboolean add_icon(Window id)\r\n{\r\n    TrayWindow *traywin;\r\n\r\n    if (!icon_swallow(id)) { &lt;-------------\r\n        fprintf(stderr, &quot;tint2 : not icon_swallow\\n&quot;);\r\n        return FALSE;\r\n    }\r\n.........\r\n.......\r\n}\r\n\r\n<b>What version of the product are you using? On what operating system?</b>\nxorg-server 1.6.1\r\ntint2-0.7beta1\r\n\r\n<b>Please provide any additional information below.</b>\n\r\n",
  "updates": {
   "kind": "projecthosting#issueCommentUpdate"
  },
  "published": "2009-04-25T13:53:21.000Z",
  "id": 0
 },
 {
  "kind": "projecthosting#issueComment",
  "canDelete": true,
  "author": {
   "kind": "projecthosting#issuePerson",
   "name": "thilo..."
  },
  "content": "are you on a 32bits or 64bits system ?\r\n",
  "updates": {
   "status": "Accepted",
   "kind": "projecthosting#issueCommentUpdate"
  },
  "published": "2009-06-08T21:05:08.000Z",
  "id": 1
 },
 {
  "kind": "projecthosting#issueComment",
  "canDelete": true,
  "author": {
   "kind": "projecthosting#issuePerson",
   "name": "thilo..."
  },
  "content": "fixed in beta3",
  "updates": {
   "status": "Fixed",
   "kind": "projecthosting#issueCommentUpdate"
  },
  "published": "2009-06-20T15:50:27.000Z",
  "id": 2
 }
]