[
 {
  "kind": "projecthosting#issueComment",
  "attachments": [
   {
    "mimetype": "application/x-gzip",
    "attachmentId": "-8761820357916635713",
    "fileSize": 7493,
    "fileName": "config.log.gz"
   }
  ],
  "canDelete": true,
  "author": {
   "kind": "projecthosting#issuePerson",
   "name": "marco.guazz..."
  },
  "content": "<b>What steps will reproduce the problem?</b>\n1. svn up\r\n2. ./configure\r\n<b>3.</b>\n\r\n<b>What is the expected output? What do you see instead?</b>\nNo error.\r\nI get: config.status: error: cannot find input file: `src/version.h.in'\r\n\r\n<b>What version of the product are you using? On what operating system?</b>\nSVN version on Fedora 13 x86_64\r\n\r\n<b>Please provide any additional information below.</b>\nIn the attachment there is the config.log file.",
  "updates": {
   "kind": "projecthosting#issueCommentUpdate"
  },
  "published": "2010-06-13T06:33:29.000Z",
  "id": 0
 },
 {
  "kind": "projecthosting#issueComment",
  "canDelete": true,
  "author": {
   "kind": "projecthosting#issuePerson",
   "name": "Andreas.Fin..."
  },
  "content": "You can't use the very latest svn version, because we've changed the build system from autoconf to cmake...\r\nSo the new way for compiling tint2 is:\r\nmkdir build\r\ncd build\r\ncmake -DCMAKE_INSTALL_PREFIX=/usr ../\r\nmake\r\nsudo make install\r\n",
  "updates": {
   "kind": "projecthosting#issueCommentUpdate"
  },
  "published": "2010-06-13T06:58:35.000Z",
  "id": 1
 },
 {
  "kind": "projecthosting#issueComment",
  "canDelete": true,
  "author": {
   "kind": "projecthosting#issuePerson",
   "name": "marco.guazz..."
  },
  "content": "Thanks!",
  "updates": {
   "kind": "projecthosting#issueCommentUpdate"
  },
  "published": "2010-06-13T07:06:27.000Z",
  "id": 2
 },
 {
  "kind": "projecthosting#issueComment",
  "canDelete": true,
  "author": {
   "kind": "projecthosting#issuePerson",
   "name": "Andreas.Fin..."
  },
  "content": "I guess most ppl got the change with cmake, so I'm closing this issue",
  "updates": {
   "status": "Fixed",
   "kind": "projecthosting#issueCommentUpdate"
  },
  "published": "2010-07-27T08:35:21.000Z",
  "id": 3
 }
]