[
 {
  "kind": "projecthosting#issueComment",
  "attachments": [
   {
    "mimetype": "image/gif; charset=binary",
    "attachmentId": "3850000000",
    "fileSize": 302808,
    "fileName": "screencast.gif"
   },
   {
    "mimetype": "application/x-coredump; charset=binary",
    "attachmentId": "3850000001",
    "fileSize": 5039992,
    "fileName": "core.9906"
   },
   {
    "mimetype": "text/plain; charset=us-ascii",
    "attachmentId": "3850000002",
    "fileSize": 11113,
    "fileName": "awesome.lua"
   },
   {
    "mimetype": "text/plain; charset=us-ascii",
    "attachmentId": "3850000003",
    "fileSize": 2447,
    "fileName": "tint2rc"
   }
  ],
  "canDelete": true,
  "author": {
   "kind": "projecthosting#issuePerson",
   "name": "Grigfat..."
  },
  "content": "I'm using awesome wm with shifty for dynamic workspaces(tags). On that configuration tint2 is very useful with &quot;taskbar_mode = multi_desktop&quot;.\r\n\r\n<b>What steps will reproduce the problem?</b>\n1. Open terminal on first tag\r\n2. Create tag\r\n3. Open terminal on second tag\r\n4. Create tag\r\n5. Open terminal on third tag\r\n6. Terminal shows on second tag\r\n7. Move terminal on third tag\r\n\r\nI've attached a screencast.\r\n\r\n<b>What is the expected output? What do you see instead?</b>\nTask should appear on third tag\r\n\r\n<b>What version of the product are you using? On what operating system?</b>\nSVN r646; ubuntu 10.04\r\n\r\n<b>Please provide any additional information below.</b>\n\r\ntint2 config are almost default.\r\nI've made a debug build like it describes here: http://code.google.com/p/tint2/issues/detail?id=368#c6\r\n\r\n(gdb) run\r\nStarting program: ~/trunk/build/tint2 \r\n[Thread debugging using libthread_db enabled]\r\nreal transparency off.... depth: 24\r\nxRandr: Found crtc's: 2\r\nxRandr: Linking output DVI-1 with crtc 0\r\ntint2 : another systray is running\r\ntint2 : nb monitor 1, nb monitor used 1, nb desktop 2\r\n\r\nProgram received signal SIGSEGV, Segmentation fault.\r\n0x0806083c in task_get_task (win=44040380) at ~/trunk/src/taskbar/taskbar.c:248\r\n248\t\t\treturn g_ptr_array_index(task_group, 0);\r\n(gdb) generate-core-file\r\nSaved corefile core.9906\r\n(gdb) bt\r\n#0  0x0806083c in task_get_task (win=44040380) at ~/trunk/src/taskbar/taskbar.c:248\r\n#1  0x08057bef in event_property_notify (e=0xbffff3cc) at ~/trunk/src/tint.c:599\r\n#2  0x08058881 in main (argc=1, argv=0xbffff4f4) at ~/trunk/src/tint.c:897\r\n\r\n",
  "updates": {
   "kind": "projecthosting#issueCommentUpdate"
  },
  "published": "2012-01-14T18:26:43.000Z",
  "id": 0
 },
 {
  "kind": "projecthosting#issueComment",
  "canDelete": true,
  "author": {
   "kind": "projecthosting#issuePerson",
   "name": "mrovi9..."
  },
  "content": "",
  "updates": {
   "kind": "projecthosting#issueCommentUpdate",
   "labels": [
    "Component-Taskbar"
   ]
  },
  "published": "2015-02-02T00:27:48.000Z",
  "id": 1
 },
 {
  "kind": "projecthosting#issueComment",
  "canDelete": true,
  "author": {
   "kind": "projecthosting#issuePerson",
   "name": "mrovi9..."
  },
  "content": "",
  "updates": {
   "kind": "projecthosting#issueCommentUpdate",
   "labels": [
    "awesomewm"
   ]
  },
  "published": "2015-02-05T14:35:28.000Z",
  "id": 2
 }
]