[
 {
  "kind": "projecthosting#issueComment",
  "canDelete": true,
  "author": {
   "kind": "projecthosting#issuePerson",
   "name": "fairpoint...."
  },
  "content": "Right now, the pager functionality depends on having different taskbar for\r\ndifferent desktop. With only one taskbar, the pager must be an external\r\nprogram: in my case, NetWMPager.\r\nI think that a &quot;proper&quot; pager like the one I mentioned above would be a\r\nreally great built-in feature for the panel.",
  "updates": {
   "kind": "projecthosting#issueCommentUpdate"
  },
  "published": "2009-11-05T07:45:50.000Z",
  "id": 0
 },
 {
  "kind": "projecthosting#issueComment",
  "canDelete": true,
  "author": {
   "kind": "projecthosting#issuePerson",
   "name": "thilo..."
  },
  "content": "",
  "updates": {
   "status": "Accepted",
   "kind": "projecthosting#issueCommentUpdate",
   "labels": [
    "-Type-Defect",
    "Type-Enhancement"
   ]
  },
  "published": "2009-11-05T09:31:21.000Z",
  "id": 1
 },
 {
  "kind": "projecthosting#issueComment",
  "canDelete": true,
  "author": {
   "kind": "projecthosting#issuePerson",
   "name": "thilo..."
  },
  "content": "I don't understand why you need a pager. here, the multi-taskbar does the job ... \r\n\r\ncan you explain why you want it (fonctionnality, aestetic, ...)\u22c5\r\n",
  "updates": {
   "kind": "projecthosting#issueCommentUpdate"
  },
  "published": "2009-11-05T09:42:00.000Z",
  "id": 2
 },
 {
  "kind": "projecthosting#issueComment",
  "canDelete": true,
  "author": {
   "kind": "projecthosting#issuePerson",
   "name": "fairpoint...."
  },
  "content": "With a lot of windows open (I can easily lost control of how many windows I open...)\r\nthe multi-taskbar becomes a mess. I find more practical using a single taskbar (that\r\nis: allocating all the available space on the taskbar to the windows opened in a\r\nsingle desktop) and reserving a small space for a pager with windows preview and\r\ndrag-and-drop capabilities - like NetWMPager. Since I noticed that this pager, with\r\nan accurate setup, blends really well with tint2, I think it will be even better if\r\nthis kind of pager becomes an integrated widget in it. I'll upload a screenshot of my\r\nsetup tonight.",
  "updates": {
   "kind": "projecthosting#issueCommentUpdate"
  },
  "published": "2009-11-05T11:10:20.000Z",
  "id": 3
 },
 {
  "kind": "projecthosting#issueComment",
  "canDelete": true,
  "author": {
   "kind": "projecthosting#issuePerson",
   "name": "fairpoint...."
  },
  "content": "http://img188.imageshack.us/img188/266/001snapshot.png\r\n\r\nThis is an example of my setup. ",
  "updates": {
   "kind": "projecthosting#issueCommentUpdate"
  },
  "published": "2009-11-05T19:39:40.000Z",
  "id": 4
 },
 {
  "kind": "projecthosting#issueComment",
  "canDelete": true,
  "author": {
   "kind": "projecthosting#issuePerson",
   "name": "daniel..."
  },
  "content": "I second this. I use single-desktop, but I'd like to have a pager in tint2",
  "updates": {
   "kind": "projecthosting#issueCommentUpdate"
  },
  "published": "2010-02-01T19:40:47.000Z",
  "id": 5
 },
 {
  "kind": "projecthosting#issueComment",
  "canDelete": true,
  "author": {
   "kind": "projecthosting#issuePerson",
   "name": "schlu..."
  },
  "content": "I wrote a systray pager. It integrates nicely with tint2, see\r\nhttp://code.google.com/p/neap/\r\n\r\n",
  "updates": {
   "kind": "projecthosting#issueCommentUpdate"
  },
  "published": "2010-03-10T21:15:40.000Z",
  "id": 6
 },
 {
  "kind": "projecthosting#issueComment",
  "canDelete": true,
  "author": {
   "kind": "projecthosting#issuePerson",
   "name": "msrinat..."
  },
  "content": "Just my 0.02$. I recently moved from using GNOME2 style workspace switchers tot he multi-taskbar style pager and I LOVE IT! It's awesome and something I guess I'd always wanted.\r\n\r\nAnyways, not to undermine the requests of daniel and lithium above, if you do decide to separate the taskbar and the pager, then please don't remove the existing multi-taskbar functionality like the GNOME devs do.",
  "updates": {
   "kind": "projecthosting#issueCommentUpdate"
  },
  "published": "2011-05-08T20:04:05.000Z",
  "id": 7
 },
 {
  "kind": "projecthosting#issueComment",
  "canDelete": true,
  "author": {
   "kind": "projecthosting#issuePerson",
   "name": "jdhedric..."
  },
  "content": "I think this is a great idea. Especially, if you have the pager show the name of the workspaces, and maybe some visual indication (like a different color), for active workspaces and also non-active workspaces that have windows on them. I'm thinking something along the lines of dwm or awesome-wm's workspace bar. ",
  "updates": {
   "kind": "projecthosting#issueCommentUpdate"
  },
  "published": "2011-09-28T03:56:08.000Z",
  "id": 8
 },
 {
  "kind": "projecthosting#issueComment",
  "canDelete": true,
  "author": {
   "kind": "projecthosting#issuePerson",
   "name": "nodi..."
  },
  "content": "Using a standalone/systray Pager (I still have to try neap, looks nice!!) would be a much better option imo. I'm already using volumeicon for my sound level. Tint2 doesn't need a volume icon nor a pager.\r\n\r\nI admit multi_desktop on small screens quickly becomes a mess.",
  "updates": {
   "kind": "projecthosting#issueCommentUpdate"
  },
  "published": "2011-11-14T14:33:15.000Z",
  "id": 9
 },
 {
  "kind": "projecthosting#issueComment",
  "canDelete": true,
  "author": {
   "kind": "projecthosting#issuePerson",
   "name": "nodi..."
  },
  "content": "https://code.google.com/p/neap/ definitely.",
  "updates": {
   "kind": "projecthosting#issueCommentUpdate"
  },
  "published": "2011-11-28T19:24:59.000Z",
  "id": 10
 },
 {
  "kind": "projecthosting#issueComment",
  "canDelete": true,
  "author": {
   "kind": "projecthosting#issuePerson",
   "name": "nodi..."
  },
  "content": "https://launchpad.net/indicator-workspaces is an alternative to neap (neap has some annoying bugs)",
  "updates": {
   "kind": "projecthosting#issueCommentUpdate"
  },
  "published": "2013-05-21T18:21:00.000Z",
  "id": 11
 },
 {
  "kind": "projecthosting#issueComment",
  "canDelete": true,
  "author": {
   "kind": "projecthosting#issuePerson",
   "name": "mrovi9..."
  },
  "content": "",
  "updates": {
   "status": "Wishlist",
   "kind": "projecthosting#issueCommentUpdate",
   "labels": [
    "-Priority-Medium",
    "Priority-Low"
   ],
   "summary": "Pager"
  },
  "published": "2015-02-01T10:38:33.000Z",
  "id": 12
 },
 {
  "kind": "projecthosting#issueComment",
  "canDelete": true,
  "author": {
   "kind": "projecthosting#issuePerson",
   "name": "mrovi9..."
  },
  "content": "Issue 249 has been merged into this issue.",
  "updates": {
   "kind": "projecthosting#issueCommentUpdate"
  },
  "published": "2015-02-01T10:38:55.000Z",
  "id": 13
 },
 {
  "kind": "projecthosting#issueComment",
  "canDelete": true,
  "author": {
   "kind": "projecthosting#issuePerson",
   "name": "mrovi9..."
  },
  "content": "",
  "updates": {
   "kind": "projecthosting#issueCommentUpdate",
   "labels": [
    "Component-New"
   ]
  },
  "published": "2015-02-02T00:53:57.000Z",
  "id": 14
 }
]