[
 {
  "kind": "projecthosting#issueComment",
  "canDelete": true,
  "author": {
   "kind": "projecthosting#issuePerson",
   "name": "ta011101110110000101101..."
  },
  "content": "<b>What steps will reproduce the problem?</b>\n1. Open tint2conf\r\n2. Click to edit a theme\r\n3. Wizard does not open\r\n\r\n<b>What is the expected output? What do you see instead?</b>\nSee 3.\r\n\r\n<b>What version of the product are you using? On what operating system?</b>\nArch\r\n\r\n<b>Please provide any additional information below.</b>\nSince the upgrade to python3",
  "updates": {
   "kind": "projecthosting#issueCommentUpdate"
  },
  "published": "2010-10-19T11:04:20.000Z",
  "id": 0
 },
 {
  "kind": "projecthosting#issueComment",
  "canDelete": true,
  "author": {
   "kind": "projecthosting#issuePerson",
   "name": "Andreas.Fin..."
  },
  "content": "tintwizard is an external project:  http://code.google.com/p/tintwizard/\r\nit's not yet compatible with python3. Please file a bugreport there...",
  "updates": {
   "kind": "projecthosting#issueCommentUpdate"
  },
  "published": "2010-10-19T14:30:35.000Z",
  "id": 1
 },
 {
  "kind": "projecthosting#issueComment",
  "canDelete": true,
  "author": {
   "kind": "projecthosting#issuePerson",
   "name": "maksi..."
  },
  "content": "This problem occurs if \"cmd_property = python /usr/bin/tintwizart.py\" in the file ~/.config/tint2/tint2confrc\". If \"cmd_property = /usr/bin/tintwizart.py\" then everything works fine. If you delete the file \"~/.config/tint2/tint2confrc\" and run tint2conf - creates a new file with \"cmd_property = python /usr/bin/tintwizart.py\" and error repeated.",
  "updates": {
   "kind": "projecthosting#issueCommentUpdate"
  },
  "published": "2010-10-20T08:22:06.000Z",
  "id": 2
 },
 {
  "kind": "projecthosting#issueComment",
  "canDelete": true,
  "author": {
   "kind": "projecthosting#issuePerson",
   "name": "bobartm..."
  },
  "content": "Yes, i confirm: the problem is and requires correction after upgrade to python3.",
  "updates": {
   "kind": "projecthosting#issueCommentUpdate"
  },
  "published": "2010-10-20T08:46:16.000Z",
  "id": 3
 },
 {
  "kind": "projecthosting#issueComment",
  "canDelete": true,
  "author": {
   "kind": "projecthosting#issuePerson",
   "name": "Andreas.Fin..."
  },
  "content": "can anyone of you try the newest svn r575? Don't forget to first delete ~/.config/tint2/tint2confrc",
  "updates": {
   "kind": "projecthosting#issueCommentUpdate"
  },
  "published": "2010-10-20T09:19:47.000Z",
  "id": 4
 },
 {
  "kind": "projecthosting#issueComment",
  "canDelete": true,
  "author": {
   "kind": "projecthosting#issuePerson",
   "name": "maksi..."
  },
  "content": "Same error. \"/usr/bin/env python2\" works.\r\nMaybe just use \"cmd_property = /usr/bin/tintwizard.py\"? And leave the version of python developers tintwizard? In tintwizard.py string \"#!/usr/bin/env python\".\r\nIn any case, the solution is already there. Thank you.",
  "updates": {
   "kind": "projecthosting#issueCommentUpdate"
  },
  "published": "2010-10-20T11:33:28.000Z",
  "id": 5
 },
 {
  "kind": "projecthosting#issueComment",
  "canDelete": true,
  "author": {
   "kind": "projecthosting#issuePerson",
   "name": "jtsa..."
  },
  "content": "The Error occurs because of this change in Python2 to Python3:\r\n\r\nPython 2 : print NAME, VERSION\r\nPython 3 : print(NAME,VERSION)\r\n\r\nso print has to be used as function.",
  "updates": {
   "kind": "projecthosting#issueCommentUpdate"
  },
  "published": "2010-10-28T18:42:29.000Z",
  "id": 6
 },
 {
  "kind": "projecthosting#issueComment",
  "canDelete": true,
  "author": {
   "kind": "projecthosting#issuePerson",
   "name": "mrovi9..."
  },
  "content": "",
  "updates": {
   "status": "Accepted",
   "kind": "projecthosting#issueCommentUpdate"
  },
  "published": "2015-02-01T19:54:43.000Z",
  "id": 7
 },
 {
  "kind": "projecthosting#issueComment",
  "canDelete": true,
  "author": {
   "kind": "projecthosting#issuePerson",
   "name": "mrovi9..."
  },
  "content": "We are retiring tintwizard in favor of tint2conf",
  "updates": {
   "status": "WontFix",
   "kind": "projecthosting#issueCommentUpdate"
  },
  "published": "2015-02-01T23:54:18.000Z",
  "id": 8
 }
]