[
 {
  "kind": "projecthosting#issueComment",
  "canDelete": true,
  "author": {
   "kind": "projecthosting#issuePerson",
   "name": "ew.li..."
  },
  "content": "<b>What version of the product are you using? On what operating system?</b>\ntint2 version 652M on Crunchbang 11 i486..\r\n\r\n<b>Please provide any additional information below.</b>\n\r\nIt would be nice if was possible to sort launchers by categorys, by adding labeled separators in front and between launchers, and also being able to attach a label to each launcher-icon, that can be aligned below each icon.\r\n\r\nThat way it would be possible to use tint2 to build a complete categorized menu with launchers, icons and labels.\r\n\r\nAdding simple text would also be nice...\r\n\r\nIf any of this is possible today, then I apologize. I`m rather new in Linux, and especially with Tint2.",
  "updates": {
   "kind": "projecthosting#issueCommentUpdate"
  },
  "published": "2012-11-01T02:25:03.000Z",
  "id": 0
 },
 {
  "kind": "projecthosting#issueComment",
  "canDelete": true,
  "author": {
   "kind": "projecthosting#issuePerson",
   "name": "goo...@cra..."
  },
  "content": "",
  "updates": {
   "kind": "projecthosting#issueCommentUpdate",
   "labels": [
    "-Type-Defect",
    "Type-Enhancement"
   ]
  },
  "published": "2015-01-22T13:26:09.000Z",
  "id": 1
 },
 {
  "kind": "projecthosting#issueComment",
  "canDelete": true,
  "author": {
   "kind": "projecthosting#issuePerson",
   "name": "mrovi9..."
  },
  "content": "Menus probably not, but text launchers maybe in the future.",
  "updates": {
   "status": "Duplicate",
   "kind": "projecthosting#issueCommentUpdate",
   "mergedInto": "457"
  },
  "published": "2015-02-02T00:45:29.000Z",
  "id": 2
 }
]