[
 {
  "kind": "projecthosting#issueComment",
  "canDelete": true,
  "author": {
   "kind": "projecthosting#issuePerson",
   "name": "jon.roadleybat..."
  },
  "content": "<b>What steps will reproduce the problem?</b>\n1. svn co ...  ./configure ...\r\n2. tint2\r\n<b>3.</b>\n\r\n<b>What is the expected output? What do you see instead?</b>\nExpecting a systray. No longer present\r\n\r\n\r\n<b>What version of the product are you using? On what operating system?</b>\nGentoo ~amd64 using a live ebuild.\r\n\r\n\r\n<b>Please provide any additional information below.</b>\nI have been using tint2 with a 9999 ebuild (ie svn) for quite some time and\r\nevery few weeks will re-install. When this was done at the weekend the\r\nsystray was no longer present.\r\n\r\nWhen I went and install the stable release 0.7.1 the systray is present\r\nsomewhere along the line some regression has occured\r\n",
  "updates": {
   "kind": "projecthosting#issueCommentUpdate"
  },
  "published": "2009-11-03T19:41:41.000Z",
  "id": 0
 },
 {
  "kind": "projecthosting#issueComment",
  "canDelete": true,
  "author": {
   "kind": "projecthosting#issuePerson",
   "name": "thilo..."
  },
  "content": "too speed.\r\nsee issue 165 for the solution.",
  "updates": {
   "status": "Duplicate",
   "kind": "projecthosting#issueCommentUpdate",
   "mergedInto": "165"
  },
  "published": "2009-11-03T19:45:44.000Z",
  "id": 1
 }
]