[
 {
  "kind": "projecthosting#issueComment",
  "canDelete": true,
  "author": {
   "kind": "projecthosting#issuePerson",
   "name": "robsp..."
  },
  "content": "<b>What steps will reproduce the problem?</b>\n1. Configure the clock so that it doesn't show seconds\r\n2. Look at the clock while also looking at a different system clock (for \r\nexample using `date')\r\n\r\n<b>What is the expected output? What do you see instead?</b>\nI expect all the clocks on my desktop to be synchronized. Instead, it seems \r\nthat tint2 gets the time when it starts up and increments the minute \r\ncounter by one each minute.\r\n\r\n<b>What version of the product are you using? On what operating system?</b>\nI am using tint2-0.10 on GNU/Linux (Kernel 2.6.33-ARCH)\r\n\r\n<b>Please provide any additional information below.</b>\nThis is particularly annoying with for example a conky clock (which does \r\nupdate correctly). Nothing makes a pretty desktop look dumb as two clocks \r\nthat are not showing the same time.\r\n\r\nIn order to fix it, I downloaded the sources and changed the function \r\ninit_clock() in src/clock/clock.c to remove the checks and always call \r\nadd_timeout(10, 1000, update_clocks_sec, 0);\r\n\r\nI am not sure this is the best solution, I didn't quite grasp why the \r\nchecks were there in the first place. However, so far on my system it \r\ndoesn't seem to be giving any kind of trouble.\r\n\r\nI don't know how to write a patch, so I tried explaining what I did to fix \r\nit the best I could, hopefully someone can either write a proper patch or \r\npropose a better fix all together.",
  "updates": {
   "kind": "projecthosting#issueCommentUpdate"
  },
  "published": "2010-06-06T23:02:20.000Z",
  "id": 0
 },
 {
  "kind": "projecthosting#issueComment",
  "canDelete": true,
  "author": {
   "kind": "projecthosting#issuePerson",
   "name": "robsp..."
  },
  "id": 1,
  "content": "void init_clock()\r\n{\r\n/*\tif(time1_format && clock_timeout==0) {\r\n\t\tif (strchr(time1_format, 'S') || strchr(time1_format, 'T') || \r\nstrchr(time1_format, 'r'))\r\n\t\t\tclock_timeout = add_timeout(10, 1000, update_clocks_sec, 0);\r\n\t\telse\r\n\t\t\tclock_timeout = add_timeout(10, 1000, update_clocks_min, 0);\r\n\t}\r\n*/\r\n\tclock_timeout = add_timeout(10, 1000, update_clocks_sec, 0);\r\n}",
  "updates": {
   "kind": "projecthosting#issueCommentUpdate"
  },
  "published": "2010-06-06T23:03:33.000Z",
  "deletedBy": {
   "kind": "projecthosting#issuePerson",
   "name": "robsp..."
  }
 },
 {
  "kind": "projecthosting#issueComment",
  "canDelete": true,
  "author": {
   "kind": "projecthosting#issuePerson",
   "name": "Andreas.Fin..."
  },
  "content": "I cannot reproduce it...\r\ncan you post what you are using for time1_format and time2_format?\r\n\r\nBecause even with a minute precision tint2 checks every second if a minute has passed by and if so, the clock is updated...",
  "updates": {
   "kind": "projecthosting#issueCommentUpdate"
  },
  "published": "2010-06-16T08:42:11.000Z",
  "id": 2
 },
 {
  "kind": "projecthosting#issueComment",
  "canDelete": true,
  "author": {
   "kind": "projecthosting#issuePerson",
   "name": "robsp..."
  },
  "content": "$ grep -r time._format .config/tint2/osd-like.tint2rc \r\ntime1_format = %H:%M\r\ntime2_format = %A %d %B\r\n\r\nI don't have a screenshot of my system showing two clocks that are on different times, since I've been using the fixed version for a while now. However, I found a screenshot in the latest Arch Linux screenshot thread that shows this: http://www.imagebam.com/image/5dd22a83969572",
  "updates": {
   "kind": "projecthosting#issueCommentUpdate"
  },
  "published": "2010-06-16T09:40:18.000Z",
  "id": 3
 },
 {
  "kind": "projecthosting#issueComment",
  "canDelete": true,
  "author": {
   "kind": "projecthosting#issuePerson",
   "name": "Andreas.Fin..."
  },
  "content": "Hm, I have the same for time1_format and it works on my system... very strange.\r\n\r\nIf you want to find the error, you could show up in #tint2 on freenode and we could try to find the error (my username is Jocker16, just ping me and I'm hopefully near my pc)",
  "updates": {
   "kind": "projecthosting#issueCommentUpdate"
  },
  "published": "2010-06-16T10:17:32.000Z",
  "id": 4
 },
 {
  "kind": "projecthosting#issueComment",
  "canDelete": true,
  "author": {
   "kind": "projecthosting#issuePerson",
   "name": "goo...@cra..."
  },
  "content": "",
  "updates": {
   "status": "Incomplete",
   "kind": "projecthosting#issueCommentUpdate"
  },
  "published": "2015-02-01T03:53:22.000Z",
  "id": 5
 }
]