[
 {
  "kind": "projecthosting#issueComment",
  "canDelete": true,
  "author": {
   "kind": "projecthosting#issuePerson",
   "name": "ikl..."
  },
  "content": "Hi Guys\r\n\r\nbeen using tint2 through crunchbang for 3 months now and just love it, the \r\nbest taskbar ever.\r\n\r\nOne and only one thing i miss from previous taskbars was the ability for a \r\nlittle applet that shows the now playing (for me mpd).\r\n\r\nwas wondering if it was possible to have a little optional area (like the \r\nbattery applet) where one could have the name of the current playing song \r\n(for mpd, moc player etc..)\r\n\r\ni know conky has that feature if that helps.. i dont know any programming \r\nbut would love to help in testing, design etc if other people are interested as well\r\n\r\nthx again for all your hard work\r\n\r\nzeltak",
  "updates": {
   "kind": "projecthosting#issueCommentUpdate"
  },
  "published": "2009-10-03T08:09:44.000Z",
  "id": 0
 },
 {
  "kind": "projecthosting#issueComment",
  "canDelete": true,
  "author": {
   "kind": "projecthosting#issuePerson",
   "name": "thilo..."
  },
  "content": "Hi, \r\n\r\nI'm not against this feature. But tint2 need to keep it's own consistency.\r\nOne possibility would be to group all 'system information' in the same area.\r\nSo battery, clock, mdp, ... appeared in the same place, with an unified background.\r\n\r\n",
  "updates": {
   "status": "Accepted",
   "kind": "projecthosting#issueCommentUpdate",
   "labels": [
    "-Type-Defect",
    "Type-Enhancement"
   ]
  },
  "published": "2009-10-03T11:44:14.000Z",
  "id": 1
 },
 {
  "kind": "projecthosting#issueComment",
  "canDelete": true,
  "author": {
   "kind": "projecthosting#issuePerson",
   "name": "ikl..."
  },
  "content": "thx thilor77 for considering this\r\n\r\ni would love to see this i future tint2 releases if possible\r\n\r\nthx\r\n\r\nzeltak",
  "updates": {
   "kind": "projecthosting#issueCommentUpdate"
  },
  "published": "2009-10-09T03:56:56.000Z",
  "id": 2
 },
 {
  "kind": "projecthosting#issueComment",
  "canDelete": true,
  "author": {
   "kind": "projecthosting#issuePerson",
   "name": "kes..."
  },
  "content": "I would suggest looking for some type of systray applet or something. I don't think\r\ntint2 is supposed to be a gnome panel replacement and would hate to see it get\r\nbloated. (I thought the battery feature was uneeded because of so many 3rd party\r\nsystray applets, but its cool)",
  "updates": {
   "kind": "projecthosting#issueCommentUpdate"
  },
  "published": "2009-10-10T05:26:48.000Z",
  "id": 3
 },
 {
  "kind": "projecthosting#issueComment",
  "canDelete": true,
  "author": {
   "kind": "projecthosting#issuePerson",
   "name": "ikl..."
  },
  "content": "thx keshto, do you know of a sys try applet for that?\r\n\r\nzeltak",
  "updates": {
   "kind": "projecthosting#issueCommentUpdate"
  },
  "published": "2009-10-10T05:30:54.000Z",
  "id": 4
 },
 {
  "kind": "projecthosting#issueComment",
  "canDelete": true,
  "author": {
   "kind": "projecthosting#issuePerson",
   "name": "thilo..."
  },
  "content": "merged ",
  "updates": {
   "status": "Duplicate",
   "kind": "projecthosting#issueCommentUpdate",
   "mergedInto": "161"
  },
  "published": "2009-10-16T18:53:35.000Z",
  "id": 5
 }
]