[
 {
  "kind": "projecthosting#issueComment",
  "canDelete": true,
  "author": {
   "kind": "projecthosting#issuePerson",
   "name": "DanielBarrettBol..."
  },
  "content": "I wrote a perl script to automate switching tint2 themes. It should be\r\nstraightforward.\r\n\r\nI know about tintwizard, but this is a command line tool.\r\n\r\n\r\nhttp://github.com/dbbolton/scripts/blob/master/tint2theme",
  "updates": {
   "kind": "projecthosting#issueCommentUpdate"
  },
  "published": "2010-01-28T02:58:27.000Z",
  "id": 0
 },
 {
  "kind": "projecthosting#issueComment",
  "canDelete": true,
  "author": {
   "kind": "projecthosting#issuePerson",
   "name": "thilo..."
  },
  "content": "thanks daniel.\r\n\r\nadded a link to your script on main page.\r\n",
  "updates": {
   "status": "Accepted",
   "kind": "projecthosting#issueCommentUpdate",
   "labels": [
    "-Type-Defect",
    "Type-Enhancement"
   ]
  },
  "published": "2010-01-28T07:52:21.000Z",
  "id": 1
 },
 {
  "kind": "projecthosting#issueComment",
  "canDelete": true,
  "author": {
   "kind": "projecthosting#issuePerson",
   "name": "thilo..."
  },
  "content": "",
  "updates": {
   "status": "Fixed",
   "kind": "projecthosting#issueCommentUpdate"
  },
  "published": "2010-01-29T13:02:15.000Z",
  "id": 2
 }
]