[
 {
  "kind": "projecthosting#issueComment",
  "attachments": [
   {
    "mimetype": "text/plain; charset=us-ascii",
    "attachmentId": "-1901114002118742207",
    "fileSize": 1922,
    "fileName": "makeoutput"
   }
  ],
  "canDelete": true,
  "author": {
   "kind": "projecthosting#issuePerson",
   "name": "kate.g.gor..."
  },
  "content": "<b>What steps will reproduce the problem?</b>\n1. Install all dependencies as well as libgtk2.0-dev\r\n2. Download and install cmake 2.8\r\n3. ~/tint2-0.11$ ../cmake-2.8.3-Linux-i386/bin/cmake -DCMAKE_INSTALL_PREFIX=/usr  ./\r\n\r\n<b>What is the expected output? What do you see instead?</b>\nExpect a successful compile; instead compile fails at &quot;Linking C executable tint2&quot; (see attached file for output)\r\n\r\n\r\n<b>What version of the product are you using? On what operating system?</b>\ntint2-0.11, Debian Lenny\r\n\r\n\r\n<b>Please provide any additional information below.</b>\nMacbook Pro 1,1\r\n",
  "updates": {
   "kind": "projecthosting#issueCommentUpdate"
  },
  "published": "2010-11-27T06:04:30.000Z",
  "id": 0
 },
 {
  "kind": "projecthosting#issueComment",
  "canDelete": true,
  "author": {
   "kind": "projecthosting#issuePerson",
   "name": "Andreas.Fin..."
  },
  "content": "Doesn't seem like you really installed all dependencies. You need (as stated here: http://code.google.com/p/tint2/wiki/Install#Dependencies) >=imlib2-1.4.2 and >=libXrandr-1.3",
  "updates": {
   "kind": "projecthosting#issueCommentUpdate"
  },
  "published": "2010-11-27T07:13:43.000Z",
  "id": 1
 },
 {
  "kind": "projecthosting#issueComment",
  "canDelete": true,
  "author": {
   "kind": "projecthosting#issuePerson",
   "name": "kate.g.gor..."
  },
  "content": "My apologies, you are right -- I skimmed the dependencies section.  Debian stable has imlib2-1.4.0 and libXrandr-1.2.3, so it is not possible to get all the tint2 dependencies through apt-get as stated in the installation instructions;  I will have to either switch to testing or install these two libraries from source.",
  "updates": {
   "kind": "projecthosting#issueCommentUpdate"
  },
  "published": "2010-11-27T09:44:24.000Z",
  "id": 2
 },
 {
  "kind": "projecthosting#issueComment",
  "canDelete": true,
  "author": {
   "kind": "projecthosting#issuePerson",
   "name": "Andreas.Fin..."
  },
  "content": "added checks to cmake for correct versions.",
  "updates": {
   "status": "WontFix",
   "kind": "projecthosting#issueCommentUpdate"
  },
  "published": "2010-12-02T19:34:01.000Z",
  "id": 3
 }
]