[
 {
  "kind": "projecthosting#issueComment",
  "attachments": [
   {
    "mimetype": "image/jpeg; charset=binary",
    "attachmentId": "4350000000",
    "fileSize": 133366,
    "fileName": "screenshot.jpg"
   }
  ],
  "canDelete": true,
  "author": {
   "kind": "projecthosting#issuePerson",
   "name": "das..."
  },
  "content": "I'm running Slackware64 14.0 with Openbox 3.5.0 and I compiled tint2 from svn. I'm also using Dana Jansens's fork of the X Composisting Manager...\r\n\r\nIcons in the launcher and in the taskbar(s) are getting distored if I start tint2 after xcompmgr.\r\n\r\nIcons in the taskbar instead of appearing as a transparent icon with no backgrounds, now some icons in the taskbar are appearing with square backgrounds, you'll  notice in the screen shot I'm attaching gimp and firefox in the taskbar now have sqaures around them...\r\n\r\nYou'll also notice in the screen shot the launcher icons looked washed out/distorted...\r\n\r\nIf I start tint2 before xcompmgr then all the icons look ok...\r\n\r\nI'm not so sure if it really matters to run true transparency, or pseudo is just fine, but I thought I'd have a go at true, but it's not looking good...\r\n\r\nPlease let me know if there's a fix for this to improve the true transparency?\r\n\r\nTHANKS",
  "updates": {
   "kind": "projecthosting#issueCommentUpdate"
  },
  "published": "2013-08-05T04:58:34.000Z",
  "id": 0
 },
 {
  "kind": "projecthosting#issueComment",
  "attachments": [
   {
    "mimetype": "image/jpeg; charset=binary",
    "attachmentId": "4350001000",
    "fileSize": 132270,
    "fileName": "screenshot_pseudo.jpg"
   }
  ],
  "canDelete": true,
  "author": {
   "kind": "projecthosting#issuePerson",
   "name": "das..."
  },
  "id": 1,
  "content": "After making the report I went back and logged out of Openbox and restarted with tint2 starting before running with pseudo transparency...\r\n\r\nPlease look at ths attached screens shot, now you will see the launcher and taskbar icons look as the should...",
  "updates": {
   "kind": "projecthosting#issueCommentUpdate"
  },
  "published": "2013-08-05T05:05:52.000Z",
  "deletedBy": {
   "kind": "projecthosting#issuePerson",
   "name": "das..."
  }
 },
 {
  "kind": "projecthosting#issueComment",
  "attachments": [
   {
    "mimetype": "image/jpeg; charset=binary",
    "attachmentId": "4350002000",
    "fileSize": 132270,
    "fileName": "screenshot_pseudo.jpg"
   }
  ],
  "canDelete": true,
  "author": {
   "kind": "projecthosting#issuePerson",
   "name": "das..."
  },
  "content": "After making the report I went back and logged out of Openbox and restarted with tint2 starting before xcompmgr, running now with pseudo transparency...\r\n\r\nPlease look at ths attached screens shot, now you will see the launcher and taskbar icons look as the should...",
  "updates": {
   "kind": "projecthosting#issueCommentUpdate"
  },
  "published": "2013-08-05T05:06:43.000Z",
  "id": 2
 },
 {
  "kind": "projecthosting#issueComment",
  "canDelete": true,
  "author": {
   "kind": "projecthosting#issuePerson",
   "name": "nema.ar..."
  },
  "content": "Hey buddy\r\nCan you take a look at issue 432? It's the same.\r\nCan you post some info about your system? I have listed one possible cause in issue 432.\r\nThanks",
  "updates": {
   "kind": "projecthosting#issueCommentUpdate"
  },
  "published": "2013-09-01T08:14:02.000Z",
  "id": 3
 },
 {
  "kind": "projecthosting#issueComment",
  "canDelete": true,
  "author": {
   "kind": "projecthosting#issuePerson",
   "name": "mrovi9..."
  },
  "content": "",
  "updates": {
   "status": "Duplicate",
   "kind": "projecthosting#issueCommentUpdate",
   "mergedInto": "432"
  },
  "published": "2015-01-21T23:55:54.000Z",
  "id": 4
 }
]