[
 {
  "kind": "projecthosting#issueComment",
  "attachments": [
   {
    "mimetype": "text/x-diff; charset=utf-8",
    "attachmentId": "3600000000",
    "fileSize": 2578,
    "fileName": "systray-pannel-setting.patch"
   }
  ],
  "canDelete": true,
  "author": {
   "kind": "projecthosting#issuePerson",
   "name": "niels.martign..."
  },
  "content": "Hi,\r\n\r\nHere is a patch I made from svn trunk to change the default panel where the systray is shown (previsouly always 0).\r\n\r\nIt introduces a new optional setting, &quot;systray_panel&quot; whose integer value is used to select the panel (systray_panel = 1 for the first panel, systray_panel = 2 for the second one, etc.). If unspecified, systray_panel defaults to 1.",
  "updates": {
   "kind": "projecthosting#issueCommentUpdate"
  },
  "published": "2011-07-25T17:25:21.000Z",
  "id": 0
 },
 {
  "kind": "projecthosting#issueComment",
  "canDelete": true,
  "author": {
   "kind": "projecthosting#issuePerson",
   "name": "goo...@cra..."
  },
  "content": "",
  "updates": {
   "kind": "projecthosting#issueCommentUpdate",
   "labels": [
    "-Type-Defect",
    "Type-Enhancement"
   ]
  },
  "published": "2011-10-18T03:21:09.000Z",
  "id": 1
 },
 {
  "kind": "projecthosting#issueComment",
  "canDelete": true,
  "author": {
   "kind": "projecthosting#issuePerson",
   "name": "nsmat..."
  },
  "content": "I was looking for this enhancement, will this be considered for the next version?",
  "updates": {
   "kind": "projecthosting#issueCommentUpdate"
  },
  "published": "2013-04-05T06:56:18.000Z",
  "id": 2
 },
 {
  "kind": "projecthosting#issueComment",
  "canDelete": true,
  "author": {
   "kind": "projecthosting#issuePerson",
   "name": "mrovi9..."
  },
  "content": "Fixed in r678, thanks for your report.",
  "updates": {
   "status": "Fixed",
   "kind": "projecthosting#issueCommentUpdate"
  },
  "published": "2015-02-01T18:39:57.000Z",
  "id": 3
 }
]