[
 {
  "kind": "projecthosting#issueComment",
  "canDelete": true,
  "author": {
   "kind": "projecthosting#issuePerson",
   "name": "sysa..."
  },
  "content": "<b>What steps will reproduce the problem?</b>\nIt can be reproduced on a laptop.\r\n\r\n<b>What is the expected output? What do you see instead?</b>\nNegatives numbers in % (or numbers over 100) and wrong time left (sometimes even negative time)\r\nhttps://dl.dropbox.com/u/71236259/2012-11-23-185407_300x61_scrot.png\r\nhttps://dl.dropbox.com/u/71236259/2012-11-23-185433_320x55_scrot.png\r\nI can't manage to find any logical explanation for these numbers. Most of the time they're random.\r\n\r\n<b>What version of the product are you using? On what operating system?</b>\nCrunchbang waldorf\r\n$ tint2 --version\r\ntint2 version 0.11-svn\r\n\r\n",
  "updates": {
   "kind": "projecthosting#issueCommentUpdate"
  },
  "published": "2012-11-23T17:18:49.000Z",
  "id": 0
 },
 {
  "kind": "projecthosting#issueComment",
  "canDelete": true,
  "author": {
   "kind": "projecthosting#issuePerson",
   "name": "mrovi9..."
  },
  "content": "",
  "updates": {
   "kind": "projecthosting#issueCommentUpdate",
   "labels": [
    "Component-Battery"
   ]
  },
  "published": "2015-02-02T00:32:00.000Z",
  "id": 1
 },
 {
  "kind": "projecthosting#issueComment",
  "canDelete": true,
  "author": {
   "kind": "projecthosting#issuePerson",
   "name": "mrovi9..."
  },
  "content": "Unfortunately this is most likely not a problem of tint2, but in the Linux kernel (it is not reading or interpreting the battery status values correctly).\r\n\r\nIf you are still affected by this, please let us know.",
  "updates": {
   "status": "NeedInfo",
   "kind": "projecthosting#issueCommentUpdate"
  },
  "published": "2015-02-05T12:27:31.000Z",
  "id": 2
 },
 {
  "kind": "projecthosting#issueComment",
  "canDelete": true,
  "author": {
   "kind": "projecthosting#issuePerson",
   "name": "sysa..."
  },
  "content": "I have no idea. I'm not using tint for more than a year. Feel free to close it.",
  "updates": {
   "kind": "projecthosting#issueCommentUpdate"
  },
  "published": "2015-03-14T17:41:22.000Z",
  "id": 3
 },
 {
  "kind": "projecthosting#issueComment",
  "canDelete": true,
  "author": {
   "kind": "projecthosting#issuePerson",
   "name": "mrovi9..."
  },
  "content": "All right, thanks for the report anyways.",
  "updates": {
   "status": "Incomplete",
   "kind": "projecthosting#issueCommentUpdate"
  },
  "published": "2015-03-14T18:54:29.000Z",
  "id": 4
 }
]