[
 {
  "kind": "projecthosting#issueComment",
  "attachments": [
   {
    "mimetype": "text/x-c; charset=us-ascii",
    "attachmentId": "-5293261157892041047",
    "fileSize": 3213,
    "fileName": "tint2_taskbar_sorting.diff"
   }
  ],
  "canDelete": true,
  "author": {
   "kind": "projecthosting#issuePerson",
   "name": "schattenpr..."
  },
  "content": "I like to control task ordering, meaning the direction from which the \r\ntasks are stacked in the taskbar.\r\n\r\nA possible patch is attached that adds a new config-option &quot;taskbar_sort&quot; \r\nwith the values &quot;left2right&quot;, &quot;right2left&quot;, &quot;ascending&quot; and &quot;descending&quot;.\r\n\r\nall the best!\r\n",
  "updates": {
   "kind": "projecthosting#issueCommentUpdate"
  },
  "published": "2009-11-19T00:35:35.000Z",
  "id": 0
 },
 {
  "kind": "projecthosting#issueComment",
  "canDelete": true,
  "author": {
   "kind": "projecthosting#issuePerson",
   "name": "thilo..."
  },
  "content": "first, I think it's better to talk about your need.\r\nwhen we have a complete view, we can search a solution.\r\n\r\nBecause there is already a patch to order task with drag n drop (in issue 79).\r\nPerhaps ordering with drag n drop and having a memory of the order is better ??\r\n\r\nI don't know if it's possible, but in multi_desktop I would like tint2 \r\nto map application on a specific desktop and order...\r\n",
  "updates": {
   "status": "Accepted",
   "kind": "projecthosting#issueCommentUpdate",
   "labels": [
    "-Type-Defect",
    "Type-Enhancement"
   ]
  },
  "published": "2009-11-19T08:15:17.000Z",
  "id": 1
 },
 {
  "kind": "projecthosting#issueComment",
  "canDelete": true,
  "author": {
   "kind": "projecthosting#issuePerson",
   "name": "schattenpr..."
  },
  "content": "Oh well, the issue title and the option were perhaps wrong or misleading. I don't \r\nwant to change the actual order of the tasks but rather the direction from which \r\nthey appear in the taskbar. It's more a cosmetical thing than an additional \r\nfunction. \r\nIf you have for example a vertical panel you can with \"taskbar_sort = ascending\" (or \r\ntaskbar_direction?) force the tasks to appear at the bottom of the taskbar first. If \r\nthe taskbar sits at the bottom corner of the screen it certainly looks better if the \r\ntasks are stacked bottom-up than top-down.\r\n\r\nAs for real task-sorting or task-drag-dropping, I don't care. I do not and will not \r\nuse it. Mapping windows on desktops and setting the task-order is imho task of the \r\nwindow manager. ",
  "updates": {
   "kind": "projecthosting#issueCommentUpdate"
  },
  "published": "2009-11-19T16:06:43.000Z",
  "id": 2
 },
 {
  "kind": "projecthosting#issueComment",
  "canDelete": true,
  "author": {
   "kind": "projecthosting#issuePerson",
   "name": "thilo..."
  },
  "content": "don't have time for tint2 these days. put some comments for memory.\r\n\r\npatch is not included because:\r\n- not convinced by this feature. don't know why.\r\n- issue 67 looks a better solution to me.\r\n  perhaps 170 and 67 can be grouped in one patch ...\r\n- using ascending/descending increase user's confusion.\r\n  already used for alphabetical systray's icon order.\r\n  it's not a good to use one name for 2 meaning.\r\n\r\nso need more reflexion.\r\n",
  "updates": {
   "kind": "projecthosting#issueCommentUpdate"
  },
  "published": "2009-11-28T09:25:05.000Z",
  "id": 3
 },
 {
  "kind": "projecthosting#issueComment",
  "canDelete": true,
  "author": {
   "kind": "projecthosting#issuePerson",
   "name": "mrovi9..."
  },
  "content": "",
  "updates": {
   "status": "Wishlist",
   "kind": "projecthosting#issueCommentUpdate",
   "labels": [
    "-Priority-Medium",
    "Priority-Low"
   ],
   "summary": "Task ordering alphabetically"
  },
  "published": "2015-02-01T10:13:07.000Z",
  "id": 4
 },
 {
  "kind": "projecthosting#issueComment",
  "canDelete": true,
  "author": {
   "kind": "projecthosting#issuePerson",
   "name": "mrovi9..."
  },
  "content": "",
  "updates": {
   "kind": "projecthosting#issueCommentUpdate",
   "labels": [
    "Component-Taskbar"
   ]
  },
  "published": "2015-02-02T00:12:00.000Z",
  "id": 5
 }
]