[
 {
  "kind": "projecthosting#issueComment",
  "attachments": [
   {
    "mimetype": "image/jpeg",
    "attachmentId": "-5989522388778150962",
    "fileSize": 22830,
    "fileName": "blah.jpg"
   }
  ],
  "canDelete": true,
  "author": {
   "kind": "projecthosting#issuePerson",
   "name": "pwnzing..."
  },
  "content": "<b>What steps will reproduce the problem?</b>\n1. with tint2 running, run some programs that sit in the tray\r\n2. overlap a program window on any part of tint2\r\n3. click a systray icon\r\n\r\n<b>What is the expected output? What do you see instead?</b>\n\r\nsystem tray icons should remain under all windows at all times, as when \r\nclicking on tasks.  instead it causes tint2 to cover the overlapped portion \r\nof the window.\r\n\r\n<b>What version of the product are you using? On what operating system?</b>\n\r\nusing tint2 0.9, openbox 3, debian lenny\r\n\r\n<b>Please provide any additional information below.</b>\n\r\nthis is with 'panel_layer = bottom' in my tint2 config and layer 'below' \r\nset in my openbox config. \r\n",
  "updates": {
   "kind": "projecthosting#issueCommentUpdate"
  },
  "published": "2010-02-19T00:45:14.000Z",
  "id": 0
 },
 {
  "kind": "projecthosting#issueComment",
  "canDelete": true,
  "author": {
   "kind": "projecthosting#issuePerson",
   "name": "Andreas.Fin..."
  },
  "content": "tell that openbox...\r\nActually I do not know why openbox treats dock windows differently...\r\nWe try to put tint2 as often as possible into the background but clicking on a\r\nsystray icon is not forwarded to tint2, so we have no chance to react on that.\r\n",
  "updates": {
   "kind": "projecthosting#issueCommentUpdate"
  },
  "published": "2010-02-19T09:20:00.000Z",
  "id": 1
 },
 {
  "kind": "projecthosting#issueComment",
  "canDelete": true,
  "author": {
   "kind": "projecthosting#issuePerson",
   "name": "thilo..."
  },
  "content": "marked has 'other'.",
  "updates": {
   "status": "Accepted",
   "kind": "projecthosting#issueCommentUpdate",
   "labels": [
    "-Type-Defect",
    "Type-Other"
   ]
  },
  "published": "2010-04-20T11:19:34.000Z",
  "id": 2
 },
 {
  "kind": "projecthosting#issueComment",
  "canDelete": true,
  "author": {
   "kind": "projecthosting#issuePerson",
   "name": "mrovi9..."
  },
  "content": "",
  "updates": {
   "status": "Duplicate",
   "kind": "projecthosting#issueCommentUpdate",
   "mergedInto": "461"
  },
  "published": "2015-02-01T10:16:44.000Z",
  "id": 3
 }
]