[
 {
  "kind": "projecthosting#issueComment",
  "canDelete": true,
  "author": {
   "kind": "projecthosting#issuePerson",
   "name": "marcelofvia..."
  },
  "content": "<b>What steps will reproduce the problem?</b>\n1. start tint2\r\n2. issue a killall -SIGUSR1 tint2\r\n\r\n<b>What is the expected output? What do you see instead?</b>\n\r\ntint2 should reload the config file and reflect changes (if any).\r\na segfault (signal 11) is generated in almost all tentatives.\r\n\r\n<b>What version of the product are you using? On what operating system?</b>\n\r\nr691\r\n\r\n<b>Please provide any additional information below.</b>\n",
  "updates": {
   "kind": "projecthosting#issueCommentUpdate"
  },
  "published": "2015-02-09T01:31:13.000Z",
  "id": 0
 },
 {
  "kind": "projecthosting#issueComment",
  "canDelete": true,
  "author": {
   "kind": "projecthosting#issuePerson",
   "name": "mrovi9..."
  },
  "content": "Thanks. Merging into issue 460 since the work is not ready.",
  "updates": {
   "status": "Duplicate",
   "kind": "projecthosting#issueCommentUpdate",
   "labels": [
    "Type-Defect",
    "Component-Panel"
   ],
   "mergedInto": "460"
  },
  "published": "2015-02-09T07:57:02.000Z",
  "id": 1
 }
]