[
 {
  "kind": "projecthosting#issueComment",
  "canDelete": true,
  "author": {
   "kind": "projecthosting#issuePerson",
   "name": "Hulking..."
  },
  "content": "<b>What steps will reproduce the problem?</b>\n1. write a .desktop file with multiple sections, put the &quot;[Desktop Entry]&quot; section as the first.(.desktop files for deadbeef or google-chrome are like this)\r\n2. add it as a launcher\r\n3. restart tint2 and click on it\r\n\r\n<b>What is the expected output? What do you see instead?</b>\nexpecting: the section &quot;[Desktop Entry]&quot; get executed.\r\nactual result: the last section get executed, which is unwanted\r\n\r\n<b>What version of the product are you using? On what operating system?</b>\ntint2 = 0.11~svn639-2\r\nOS = CrunchBang 10 Statler (Distro basing on Debian 6 Squeeze)\r\nuname -a = 3.2.0-0.bpo.2-amd64 #1 SMP Fri Jun 29 20:42:29 UTC 2012 x86_64 GNU/Linux\r\n\r\n<b>Please provide any additional information below.</b>\nCrunchBang uses openbox and tint2 to provide desktop.",
  "updates": {
   "kind": "projecthosting#issueCommentUpdate"
  },
  "published": "2012-08-19T02:27:55.000Z",
  "id": 0
 },
 {
  "kind": "projecthosting#issueComment",
  "canDelete": true,
  "author": {
   "kind": "projecthosting#issuePerson",
   "name": "mrovi1..."
  },
  "content": "It was fixed in http://code.google.com/p/tint2/source/detail?r=640 . Actually, I suggest upgrading to trunk, as some other minor fixes have been committed in the meantime.",
  "updates": {
   "kind": "projecthosting#issueCommentUpdate"
  },
  "published": "2012-08-19T03:11:09.000Z",
  "id": 1
 },
 {
  "kind": "projecthosting#issueComment",
  "canDelete": true,
  "author": {
   "kind": "projecthosting#issuePerson",
   "name": "Hulking..."
  },
  "content": "got it. thanks. :)",
  "updates": {
   "kind": "projecthosting#issueCommentUpdate"
  },
  "published": "2012-08-19T05:35:05.000Z",
  "id": 2
 },
 {
  "kind": "projecthosting#issueComment",
  "canDelete": true,
  "author": {
   "kind": "projecthosting#issuePerson",
   "name": "mrovi9..."
  },
  "content": "",
  "updates": {
   "status": "Fixed",
   "kind": "projecthosting#issueCommentUpdate"
  },
  "published": "2015-02-01T23:12:34.000Z",
  "id": 3
 }
]