[
 {
  "kind": "projecthosting#issueComment",
  "canDelete": true,
  "author": {
   "kind": "projecthosting#issuePerson",
   "name": "fadingd..."
  },
  "content": "Issue #55 is very similar to my idea: (1) have a width option for the\r\nactive task, and/or (2) have a right/left order priority for the active\r\nwindow/task. \r\n\r\nThis way, a full title could be shown for what you are working on &amp; icons\r\nfor everything else (or vice-versa). \r\n\r\nSecond, having a right or left justifying/reordering for the active\r\ntask/window could be handy- always know where to find the active window\r\n..and with some fancy animations, this could really be a show off. \r\n",
  "updates": {
   "kind": "projecthosting#issueCommentUpdate"
  },
  "published": "2009-09-10T20:09:11.000Z",
  "id": 0
 },
 {
  "kind": "projecthosting#issueComment",
  "canDelete": true,
  "author": {
   "kind": "projecthosting#issuePerson",
   "name": "thilo..."
  },
  "content": "All those feature (55, 140, ...) need a very deep thinking.\r\nI can understand the problem, but not convince by solutions\r\n(the full title of the active task is already drawn in title's window).\r\n\r\n\r\n",
  "updates": {
   "status": "Accepted",
   "kind": "projecthosting#issueCommentUpdate",
   "labels": [
    "-Type-Defect",
    "Type-Enhancement"
   ]
  },
  "published": "2009-09-11T09:22:25.000Z",
  "id": 1
 },
 {
  "kind": "projecthosting#issueComment",
  "canDelete": true,
  "author": {
   "kind": "projecthosting#issuePerson",
   "name": "fadingd..."
  },
  "content": "Ah, so it's mostly a matter of minimizing the text on the non-actives. I fully\r\nunderstand the amount of effort.. Just thought I'd give an idea.",
  "updates": {
   "kind": "projecthosting#issueCommentUpdate"
  },
  "published": "2009-09-11T15:43:21.000Z",
  "id": 2
 },
 {
  "kind": "projecthosting#issueComment",
  "canDelete": true,
  "author": {
   "kind": "projecthosting#issuePerson",
   "name": "thilo..."
  },
  "content": "and comments are welcome.\r\n\r\nthe amount of work is not a problem.\r\nthe problem is to choose the right solution (usability / look&feel).\r\n",
  "updates": {
   "kind": "projecthosting#issueCommentUpdate"
  },
  "published": "2009-09-11T16:13:33.000Z",
  "id": 3
 },
 {
  "kind": "projecthosting#issueComment",
  "canDelete": true,
  "author": {
   "kind": "projecthosting#issuePerson",
   "name": "dmitry.medvin..."
  },
  "content": "My minimalist opinion again: no fancy resize-moving effects! Who needs them? The\r\nspeed is the first priority in tint2 I think.\r\n\r\nAnd about resizing the active task: I also don't see the point \u2014\u00a0I know what is the\r\nwindow I'm currently working in. I don't use taskbar to look, where the active window\r\nis and what is it about, I use it to switch to other windows. So it would have more\r\nsense, if all the tasks except the active one will be expanded showing text, instead\r\nof expanding the active one, which will take away my attention at my glance. But I'm\r\nnot sure if it will be usable in this case either.",
  "updates": {
   "kind": "projecthosting#issueCommentUpdate"
  },
  "published": "2009-09-14T08:45:02.000Z",
  "id": 4
 },
 {
  "kind": "projecthosting#issueComment",
  "canDelete": true,
  "author": {
   "kind": "projecthosting#issuePerson",
   "name": "thilo..."
  },
  "content": "thanks to keep me in the right direction :)",
  "updates": {
   "kind": "projecthosting#issueCommentUpdate"
  },
  "published": "2009-09-14T11:03:23.000Z",
  "id": 5
 },
 {
  "kind": "projecthosting#issueComment",
  "canDelete": true,
  "author": {
   "kind": "projecthosting#issuePerson",
   "name": "mrovi9..."
  },
  "content": "",
  "updates": {
   "status": "Wishlist",
   "kind": "projecthosting#issueCommentUpdate",
   "labels": [
    "-Priority-Medium",
    "Priority-Low"
   ]
  },
  "published": "2015-02-01T09:24:16.000Z",
  "id": 6
 },
 {
  "kind": "projecthosting#issueComment",
  "canDelete": true,
  "author": {
   "kind": "projecthosting#issuePerson",
   "name": "mrovi9..."
  },
  "content": "",
  "updates": {
   "kind": "projecthosting#issueCommentUpdate",
   "summary": "Active title widths & organization"
  },
  "published": "2015-02-02T00:10:46.000Z",
  "id": 7
 },
 {
  "kind": "projecthosting#issueComment",
  "canDelete": true,
  "author": {
   "kind": "projecthosting#issuePerson",
   "name": "mrovi9..."
  },
  "content": "Sorry but I don't think it is a good idea to have GUI elements move around so much.\r\n\r\nYou could use a different background instead.",
  "updates": {
   "status": "WontFix",
   "kind": "projecthosting#issueCommentUpdate"
  },
  "published": "2015-02-02T00:14:40.000Z",
  "id": 8
 }
]