[
 {
  "kind": "projecthosting#issueComment",
  "attachments": [
   {
    "mimetype": "text/x-c; charset=us-ascii",
    "attachmentId": "5806089914274798540",
    "fileSize": 1118,
    "fileName": "clock.patch"
   }
  ],
  "canDelete": true,
  "author": {
   "kind": "projecthosting#issuePerson",
   "name": "wim.sp...@ora..."
  },
  "content": "<b>What steps will reproduce the problem?</b>\ntime1_format = %k:%M in tint2rc\r\n\r\n<b>What is the expected output? What do you see instead?</b>\nIf tint2 is started at 9:40:36 the clock will only be updated once a minute\r\nat 36 seconds past the minute. So it lags 36 seconds behind in that case.\r\n\r\n<b>What version of the product are you using? On what operating system?</b>\ntint2 v0.9 on Slackware Linux.\r\n\r\n<b>Please provide any additional information below.</b>\nHere's my patch: http://members.home.nl/w.speek/patch/clock.patch.txt\r\nOr see the attachment.",
  "updates": {
   "kind": "projecthosting#issueCommentUpdate"
  },
  "published": "2010-02-03T07:19:23.000Z",
  "id": 0
 },
 {
  "kind": "projecthosting#issueComment",
  "canDelete": true,
  "author": {
   "kind": "projecthosting#issuePerson",
   "name": "thilo..."
  },
  "content": "applied thanks !\r\n",
  "updates": {
   "status": "Fixed",
   "kind": "projecthosting#issueCommentUpdate"
  },
  "published": "2010-02-03T12:05:52.000Z",
  "id": 1
 }
]