[
 {
  "kind": "projecthosting#issueComment",
  "canDelete": true,
  "author": {
   "kind": "projecthosting#issuePerson",
   "name": "brunomomart..."
  },
  "content": "<b>What steps will reproduce the problem?</b>\n1. Launching the program from GNOME menu, after installation.\r\n<b>2.</b>\n<b>3.</b>\n\r\n<b>What is the expected output? What do you see instead?</b>\nJust a crash.\r\n\r\n<b>What version of the product are you using? On what operating system?</b>\ntintwizard-0.3.4-2.fc14\r\n\r\n<b>Please provide any additional information below.</b>\n\r\nBug is reported here:\r\nhttps://bugzilla.redhat.com/show_bug.cgi?id=666008\r\n\r\nAny workaround, guys?\r\n\r\nThanks!",
  "updates": {
   "kind": "projecthosting#issueCommentUpdate"
  },
  "published": "2011-03-20T00:06:06.000Z",
  "id": 0
 },
 {
  "kind": "projecthosting#issueComment",
  "canDelete": true,
  "author": {
   "kind": "projecthosting#issuePerson",
   "name": "Andreas.Fin..."
  },
  "content": "It seems that it cannot open the file ~/.config/tint2/tintwizard.conf.\r\nSeveral things you can try:\r\n- Create the directory ~/.config/tint2 manually\r\n- Try to first start tint2 instead of tint2conf (and then tint2conf)\r\n",
  "updates": {
   "kind": "projecthosting#issueCommentUpdate"
  },
  "published": "2011-03-20T17:26:26.000Z",
  "id": 1
 },
 {
  "kind": "projecthosting#issueComment",
  "canDelete": true,
  "author": {
   "kind": "projecthosting#issuePerson",
   "name": "mrovi9..."
  },
  "content": "Closing since we are retiring tintwizard",
  "updates": {
   "status": "WontFix",
   "kind": "projecthosting#issueCommentUpdate"
  },
  "published": "2015-02-01T23:12:12.000Z",
  "id": 2
 }
]