[
 {
  "kind": "projecthosting#issueComment",
  "canDelete": true,
  "author": {
   "kind": "projecthosting#issuePerson",
   "name": "elektra..."
  },
  "content": "Hi,\r\n\r\nPlease apply the following patch, which adds support for the /sys/class/power_supply/*/power_now attribute:\r\n\r\nhttp://git.debian.org/?p=collab-maint/tint2.git;a=blob;f=debian/patches/add-power-now-support.patch;h=afdbda5f8acfe5c0967e8b62f2786def1041efae;hb=c95401a80482b1f45141053953e4c53fd2a4cc5d\r\n\r\nWithout this patch tint2 segfaulted on my Thinkpad with a 2.6.36 kernel, which does not offer /current_now anymore.\r\n\r\n-- Sebastian",
  "updates": {
   "kind": "projecthosting#issueCommentUpdate"
  },
  "published": "2010-10-21T02:37:32.000Z",
  "id": 0
 },
 {
  "kind": "projecthosting#issueComment",
  "canDelete": true,
  "author": {
   "kind": "projecthosting#issuePerson",
   "name": "Andreas.Fin..."
  },
  "content": "applied in r576. Thx for the patch",
  "updates": {
   "status": "Fixed",
   "kind": "projecthosting#issueCommentUpdate"
  },
  "published": "2010-10-21T07:30:30.000Z",
  "id": 1
 }
]