[
 {
  "kind": "projecthosting#issueComment",
  "canDelete": true,
  "author": {
   "kind": "projecthosting#issuePerson",
   "name": "baltazar..."
  },
  "content": "Add option for window grouping.\r\n\r\nWindows of the same application should be grouped into a single button on the task panel, showing number of windows in the group. When you click on the group, menu appears and shows windows of the group. Behavior should be much like in Windows Explorer.\r\n\r\nConsider this image: http://help.artaro.eu/images/winvista/vistataskbar11.jpg",
  "updates": {
   "kind": "projecthosting#issueCommentUpdate"
  },
  "published": "2011-06-09T06:45:24.000Z",
  "id": 0
 },
 {
  "kind": "projecthosting#issueComment",
  "canDelete": true,
  "author": {
   "kind": "projecthosting#issuePerson",
   "name": "goo...@cra..."
  },
  "content": "",
  "updates": {
   "kind": "projecthosting#issueCommentUpdate",
   "labels": [
    "-Type-Defect",
    "Type-Enhancement"
   ]
  },
  "published": "2011-10-18T03:27:28.000Z",
  "id": 1
 },
 {
  "kind": "projecthosting#issueComment",
  "canDelete": true,
  "author": {
   "kind": "projecthosting#issuePerson",
   "name": "van..."
  },
  "content": "If you ever get to this, make sure drag-dropping files on the grouped windows brings some kind of a choice to pick the one to drop the file into.",
  "updates": {
   "kind": "projecthosting#issueCommentUpdate"
  },
  "published": "2011-11-11T06:02:08.000Z",
  "id": 2
 },
 {
  "kind": "projecthosting#issueComment",
  "canDelete": true,
  "author": {
   "kind": "projecthosting#issuePerson",
   "name": "malcomy..."
  },
  "content": "Is this going to happen sometime?",
  "updates": {
   "kind": "projecthosting#issueCommentUpdate"
  },
  "published": "2013-11-04T12:35:12.000Z",
  "id": 3
 },
 {
  "kind": "projecthosting#issueComment",
  "canDelete": true,
  "author": {
   "kind": "projecthosting#issuePerson",
   "name": "mrovi9..."
  },
  "content": "",
  "updates": {
   "status": "Wishlist",
   "kind": "projecthosting#issueCommentUpdate",
   "labels": [
    "-Priority-Medium",
    "Priority-Low"
   ]
  },
  "published": "2015-02-01T23:16:03.000Z",
  "id": 4
 },
 {
  "kind": "projecthosting#issueComment",
  "canDelete": true,
  "author": {
   "kind": "projecthosting#issuePerson",
   "name": "mrovi9..."
  },
  "content": "",
  "updates": {
   "kind": "projecthosting#issueCommentUpdate",
   "labels": [
    "Component-Taskbar"
   ]
  },
  "published": "2015-02-02T00:05:13.000Z",
  "id": 5
 },
 {
  "kind": "projecthosting#issueComment",
  "canDelete": true,
  "author": {
   "kind": "projecthosting#issuePerson",
   "name": "mrovi9..."
  },
  "content": "Issue 427 has been merged into this issue.",
  "updates": {
   "kind": "projecthosting#issueCommentUpdate"
  },
  "published": "2015-02-02T00:30:41.000Z",
  "id": 6
 }
]