[
 {
  "kind": "projecthosting#issueComment",
  "canDelete": true,
  "author": {
   "kind": "projecthosting#issuePerson",
   "name": "freeonfa..."
  },
  "content": "<b>What version of the product are you using? On what operating system?</b>\ntint2 version 0.9rc1 on debian squeeze\r\n\r\n<b>Please provide any additional information below.</b>\nIs there any chance that the tint2 can provide overlay feature? So when an\r\napplication, e.g. firefox, is launched, tint2 won't reduce the area that\r\napplication can display. For instance, I specify tint2 at `top left\r\nvertical` position with panel size 100% 44; so when firefox is launched, 44\r\npixel is used by tint2. That would be great if firefox can overlay tint2\r\nwhen it is maxized. But tint2 will appear again when e.g. click `show\r\ndesktop.` \r\n",
  "updates": {
   "kind": "projecthosting#issueCommentUpdate"
  },
  "published": "2010-05-23T17:04:40.000Z",
  "id": 0
 },
 {
  "kind": "projecthosting#issueComment",
  "canDelete": true,
  "author": {
   "kind": "projecthosting#issuePerson",
   "name": "freeonfa..."
  },
  "content": "The type should be enhancement. Don't know why the issue type becomes defect. ",
  "updates": {
   "kind": "projecthosting#issueCommentUpdate"
  },
  "published": "2010-05-23T17:08:21.000Z",
  "id": 1
 },
 {
  "kind": "projecthosting#issueComment",
  "canDelete": true,
  "author": {
   "kind": "projecthosting#issuePerson",
   "name": "thilo..."
  },
  "content": "I think this feature is already here.\r\ndifferent way to do it :\r\nfirst solution : use autohide option\r\n  # Panel Autohide\r\n  autohide = 1\r\n  autohide_show_timeout = 0.3\r\n  autohide_hide_timeout = 1.7\r\n  autohide_height = 2\r\n  strut_policy = follow_size\r\nsecond solution : use strut_policy = none\r\nso maximized window cover the panel and then put the panel on top or bottom (like you\r\nwant).\r\n  # Panel Autohide\r\n  autohide = 0\r\n  autohide_show_timeout = 0.3\r\n  autohide_hide_timeout = 1.7\r\n  autohide_height = 2\r\n  strut_policy = none\r\nand  \r\n  panel_layer = top\r\n  or panel_layer = bottom\r\n",
  "updates": {
   "kind": "projecthosting#issueCommentUpdate",
   "labels": [
    "-Type-Defect",
    "Type-Enhancement"
   ]
  },
  "published": "2010-05-23T17:33:18.000Z",
  "id": 2
 },
 {
  "kind": "projecthosting#issueComment",
  "canDelete": true,
  "author": {
   "kind": "projecthosting#issuePerson",
   "name": "freeonfa..."
  },
  "content": "The setting  `autohide = 1' works, but not very sure why the second solution \r\n\r\nautohide = 0\r\n...\r\nstrut_policy = none\r\npanel_layer = bottom\r\n\r\ndoes not have effect. \r\n\r\nThank you very much for your help.",
  "updates": {
   "kind": "projecthosting#issueCommentUpdate"
  },
  "published": "2010-05-24T02:39:03.000Z",
  "id": 3
 },
 {
  "kind": "projecthosting#issueComment",
  "canDelete": true,
  "author": {
   "kind": "projecthosting#issuePerson",
   "name": "thilo..."
  },
  "content": "well, the second solution is done after tint2-0.9 \r\nso you can used it with tint2-0.10",
  "updates": {
   "kind": "projecthosting#issueCommentUpdate"
  },
  "published": "2010-05-24T06:56:37.000Z",
  "id": 4
 },
 {
  "kind": "projecthosting#issueComment",
  "canDelete": true,
  "author": {
   "kind": "projecthosting#issuePerson",
   "name": "thilo..."
  },
  "content": "",
  "updates": {
   "status": "Fixed",
   "kind": "projecthosting#issueCommentUpdate"
  },
  "published": "2010-05-31T16:30:11.000Z",
  "id": 5
 }
]