[
 {
  "kind": "projecthosting#issueComment",
  "canDelete": true,
  "author": {
   "kind": "projecthosting#issuePerson",
   "name": "esbe..."
  },
  "content": "Suggestion for improvement:\r\n\r\nI would like a functionality so that the panel is up if no window is covering it. When a window is maximized, it should hide again. \r\n\r\nGreat software!\r\n\r\nE",
  "updates": {
   "kind": "projecthosting#issueCommentUpdate"
  },
  "published": "2010-10-27T22:22:37.000Z",
  "id": 0
 },
 {
  "kind": "projecthosting#issueComment",
  "canDelete": true,
  "author": {
   "kind": "projecthosting#issuePerson",
   "name": "thilo..."
  },
  "content": "",
  "updates": {
   "kind": "projecthosting#issueCommentUpdate",
   "labels": [
    "-Type-Defect",
    "Type-Enhancement"
   ]
  },
  "published": "2010-12-02T21:49:52.000Z",
  "id": 1
 },
 {
  "kind": "projecthosting#issueComment",
  "canDelete": true,
  "author": {
   "kind": "projecthosting#issuePerson",
   "name": "mrovi9..."
  },
  "content": "",
  "updates": {
   "kind": "projecthosting#issueCommentUpdate",
   "labels": [
    "Component-Panel"
   ]
  },
  "published": "2015-02-02T00:37:14.000Z",
  "id": 2
 },
 {
  "kind": "projecthosting#issueComment",
  "canDelete": true,
  "author": {
   "kind": "projecthosting#issuePerson",
   "name": "mrovi9..."
  },
  "content": "",
  "updates": {
   "status": "Wishlist",
   "kind": "projecthosting#issueCommentUpdate"
  },
  "published": "2015-02-03T10:50:53.000Z",
  "id": 3
 }
]