[
 {
  "kind": "projecthosting#issueComment",
  "canDelete": true,
  "author": {
   "kind": "projecthosting#issuePerson",
   "name": "dfa..."
  },
  "content": "allow to pin tasks as launchers in multidesktop view (own launchers on own desktop)",
  "updates": {
   "kind": "projecthosting#issueCommentUpdate"
  },
  "published": "2010-11-28T14:46:28.000Z",
  "id": 0
 },
 {
  "kind": "projecthosting#issueComment",
  "canDelete": true,
  "author": {
   "kind": "projecthosting#issuePerson",
   "name": "thilo..."
  },
  "content": "Don't understand.\r\nDo you want to open a task on a specific desktop ?\r\nIf so, openbox can do it (see rc.xml file).\r\n",
  "updates": {
   "kind": "projecthosting#issueCommentUpdate"
  },
  "published": "2010-11-28T17:57:43.000Z",
  "id": 1
 },
 {
  "kind": "projecthosting#issueComment",
  "canDelete": true,
  "author": {
   "kind": "projecthosting#issuePerson",
   "name": "thilo..."
  },
  "content": "",
  "updates": {
   "kind": "projecthosting#issueCommentUpdate",
   "labels": [
    "-Type-Defect",
    "Type-Enhancement"
   ]
  },
  "published": "2010-12-02T21:50:29.000Z",
  "id": 2
 },
 {
  "kind": "projecthosting#issueComment",
  "canDelete": true,
  "author": {
   "kind": "projecthosting#issuePerson",
   "name": "mrovi9..."
  },
  "content": "",
  "updates": {
   "status": "Incomplete",
   "kind": "projecthosting#issueCommentUpdate"
  },
  "published": "2015-02-01T22:49:33.000Z",
  "id": 3
 }
]