[
 {
  "kind": "projecthosting#issueComment",
  "attachments": [
   {
    "mimetype": "image/png; charset=binary",
    "attachmentId": "4370000000",
    "fileSize": 18019,
    "fileName": "Selection_001.png"
   }
  ],
  "canDelete": true,
  "author": {
   "kind": "projecthosting#issuePerson",
   "name": "enabf..."
  },
  "content": "In a task, the text can display on multiple lines, but it breaks up the text at arbitrary boundaries.  It would be better to break the text at a word boundary, much like this textbox here does.\r\n\r\nReproduction:\r\n\r\n1. You may need to adjust tint2 so text is small enough to fit on two lines of a task\r\n2. Open a task with a long task item description\r\n\r\nWhat do you think?",
  "updates": {
   "kind": "projecthosting#issueCommentUpdate"
  },
  "published": "2013-09-03T21:11:05.000Z",
  "id": 0
 },
 {
  "kind": "projecthosting#issueComment",
  "canDelete": true,
  "author": {
   "kind": "projecthosting#issuePerson",
   "name": "mrovi9..."
  },
  "content": "",
  "updates": {
   "status": "Wishlist",
   "kind": "projecthosting#issueCommentUpdate",
   "labels": [
    "-Type-Defect",
    "Type-Enhancement"
   ]
  },
  "published": "2015-02-01T18:21:07.000Z",
  "id": 1
 },
 {
  "kind": "projecthosting#issueComment",
  "canDelete": true,
  "author": {
   "kind": "projecthosting#issuePerson",
   "name": "mrovi9..."
  },
  "content": "Thanks for the report.\r\n\r\nThe same for tooltips maybe.",
  "updates": {
   "kind": "projecthosting#issueCommentUpdate",
   "labels": [
    "Component-Taskbar"
   ],
   "summary": "Word wrap at word boundaries"
  },
  "published": "2015-02-01T23:59:52.000Z",
  "id": 2
 }
]